{"total_results": 4636, "total_pages": 232, "page": 1, "results": [{"poster_path": "/lIv1QinFqz4dlp5U4lQ6HaiskOZ.jpg", "title": "Whiplash", "overview": "Under the direction of a ruthless instructor, a talented young drummer begins to pursue perfection at any cost, even his humanity.", "release_date": "2014-10-10", "popularity": 8.867516, "original_title": "Whiplash", "backdrop_path": "/6bbZ6XyvgfjhQwbplnUh1LSj1ky.jpg", "vote_count": 1735, "video": false, "adult": false, "vote_average": 8.36, "original_language": "en", "id": 244786, "genre_ids": [18, 10402]}, {"poster_path": "/9O7gLzmreU0nGkIB6K3BsJbzvNv.jpg", "title": "The Shawshank Redemption", "overview": "Framed in the 1940s for the double murder of his wife and her lover, upstanding banker Andy Dufresne begins a new life at the Shawshank prison, where he puts his accounting skills to work for an amoral warden. During his long stretch in prison, Dufresne comes to be admired by the other inmates -- including an older prisoner named Red -- for his integrity and unquenchable sense of hope.", "release_date": "1994-09-10", "popularity": 7.632829, "original_title": "The Shawshank Redemption", "backdrop_path": "/xBKGJQsAIeweesB79KC89FpBrVr.jpg", "vote_count": 4576, "video": false, "adult": false, "vote_average": 8.26, "original_language": "en", "id": 278, "genre_ids": [18, 80]}, {"poster_path": "/eqFckcHuFCT1FrzLOAvXBb4jHwq.jpg", "title": "Room", "overview": "Jack is a young boy of 5 years old who has lived all his life in one room. He believes everything within it are the only real things in the world. But what will happen when his Ma suddenly tells him that there are other things outside of Room?", "release_date": "2015-10-16", "popularity": 11.443989, "original_title": "Room", "backdrop_path": "/tBhp8MGaiL3BXpPCSl5xY397sGH.jpg", "vote_count": 612, "video": false, "adult": false, "vote_average": 8.23, "original_language": "en", "id": 264644, "genre_ids": [18]}, {"poster_path": "/nBNZadXqJSdt05SHLqgT0HuC5Gm.jpg", "title": "Interstellar", "overview": "Interstellar chronicles the adventures of a group of explorers who make use of a newly discovered wormhole to surpass the limitations on human space travel and conquer the vast distances involved in an interstellar voyage.", "release_date": "2014-11-05", "popularity": 15.467026, "original_title": "Interstellar", "backdrop_path": "/xu9zaAevzQ5nnrsXN6JcahLnG4i.jpg", "vote_count": 4618, "video": false, "adult": false, "vote_average": 8.21, "original_language": "en", "id": 157336, "genre_ids": [12, 18, 878]}, {"poster_path": "/d4KNaTrltq6bpkFS01pYtyXa09m.jpg", "title": "The Godfather", "overview": "The story spans the years from 1945 to 1955 and chronicles the fictional Italian-American Corleone crime family. When organized crime family patriarch Vito Corleone barely survives an attempt on his life, his youngest son, Michael, steps in to take care of the would-be killers, launching a campaign of bloody revenge.", "release_date": "1972-03-15", "popularity": 7.300197, "original_title": "The Godfather", "backdrop_path": "/6xKCYgH16UuwEGAyroLU6p8HLIn.jpg", "vote_count": 3080, "video": false, "adult": false, "vote_average": 8.19, "original_language": "en", "id": 238, "genre_ids": [18, 80]}, {"poster_path": "/3TpMBcAYH4cxCw5WoRacWodMTCG.jpg", "title": "Paperman", "overview": "An urban office worker finds that paper airplanes are instrumental in meeting a girl in ways he never expected.", "release_date": "2012-11-02", "popularity": 3.441322, "original_title": "Paperman", "backdrop_path": "/cqn1ynw78Wan37jzs1Ckm7va97G.jpg", "vote_count": 373, "video": false, "adult": false, "vote_average": 8.18, "original_language": "en", "id": 140420, "genre_ids": [16, 10749, 10751]}, {"poster_path": "/A2rxR8g3y6kcjIoR2fcwtq9eppc.jpg", "title": "Presto", "overview": "Dignity. Poise. Mystery. We expect nothing less from the great turn-of-the-century magician, Presto. But when Presto neglects to feed his rabbit one too many times, the magician finds he isn't the only one with a few tricks up his sleeve!", "release_date": "2008-06-18", "popularity": 3.203514, "original_title": "Presto", "backdrop_path": "/sFQ10h9DnjOYIF4HjtLQuZ8pnb4.jpg", "vote_count": 228, "video": false, "adult": false, "vote_average": 8.13, "original_language": "en", "id": 13042, "genre_ids": [16, 10751]}, {"poster_path": "/4mFsNQwbD0F237Tx7gAPotd0nbJ.jpg", "title": "The Intouchables", "overview": "A true story of two men who should never have met - a quadriplegic aristocrat who was injured in a paragliding accident and a young man from the projects.", "release_date": "2011-11-02", "popularity": 5.943408, "original_title": "Intouchables", "backdrop_path": "/ihWaJZCUIon2dXcosjQG2JHJAPN.jpg", "vote_count": 2176, "video": false, "adult": false, "vote_average": 8.13, "original_language": "fr", "id": 77338, "genre_ids": [18, 35]}, {"poster_path": "/dL11DBPcRhWWnJcFXl9A07MrqTI.jpg", "title": "Spirited Away", "overview": "Spirited Away is an Oscar winning Japanese animated film about a ten year old girl who wanders away from her parents along a path that leads to a world ruled by strange and unusual monster-like animals. Her parents have been changed into pigs along with others inside a bathhouse full of these creatures. Will she ever see the world how it once was?", "release_date": "2001-07-20", "popularity": 5.999902, "original_title": "\u5343\u3068\u5343\u5c0b\u306e\u795e\u96a0\u3057", "backdrop_path": "/g05ZFUUrJM8KsmpsGj8NnF5IyHv.jpg", "vote_count": 1641, "video": false, "adult": false, "vote_average": 8.11, "original_language": "ja", "id": 129, "genre_ids": [14, 12, 16, 10751]}, {"poster_path": "/qJ9ouIj4wN24asvKTUSAcJnSfrT.jpg", "title": "Feast", "overview": "This Oscar-winning animated short film tells the story of one man's love life is seen through the eyes of his best friend and dog, Winston, and revealed bite by bite through the meals they share.", "release_date": "2014-11-07", "popularity": 2.461317, "original_title": "Feast", "backdrop_path": "/fCVPTB6VxfIy2xKGDLt9Ek5OJhm.jpg", "vote_count": 265, "video": false, "adult": false, "vote_average": 8.08, "original_language": "en", "id": 293299, "genre_ids": [10749, 35, 16, 18, 10751]}, {"poster_path": "/bwVhmPpydv8P7mWfrmL3XVw0MV5.jpg", "title": "Grave of the Fireflies", "overview": "In the latter part of World War II, a boy and his sister, orphaned when their mother is killed in the firebombing of Tokyo, are left to survive on their own in what remains of civilian life in Japan. The plot follows this boy and his sister as they do their best to survive in the Japanese countryside, battling hunger, prejudice, and pride in their own quiet, personal battle.", "release_date": "1988-04-16", "popularity": 1.002351, "original_title": "Hotaru no haka", "backdrop_path": "/fCUIuG7y4YKC3hofZ8wsj7zhCpR.jpg", "vote_count": 345, "video": false, "adult": false, "vote_average": 8.07, "original_language": "ja", "id": 12477, "genre_ids": [10752, 18, 16, 10751]}, {"poster_path": "/f7DImXDebOs148U4uPjI61iDvaK.jpg", "title": "Life Is Beautiful", "overview": "A touching story of an Italian book seller of Jewish ancestry who lives in his own little fairy tale. His creative and happy life would come to an abrupt halt when his entire family is deported to a concentration camp during World War II. While locked up he tries to convince his son that the whole thing is just a game.", "release_date": "1997-12-20", "popularity": 4.387231, "original_title": "La vita \u00e8 bella", "backdrop_path": "/bORe0eI72D874TMawOOFvqWS6Xe.jpg", "vote_count": 1212, "video": false, "adult": false, "vote_average": 8.06, "original_language": "it", "id": 637, "genre_ids": [35, 18]}, {"poster_path": "/gzlJkVfWV5VEG5xK25cvFGJgkDz.jpg", "title": "Princess Mononoke", "overview": "Ashitaka, a prince of the disappearing Ainu tribe, is cursed by a demonized boar god and must journey to the west to find a cure. Along the way, he encounters San, a young human woman fighting to protect the forest, and Lady Eboshi, who is trying to destroy it. Ashitaka must find a way to bring balance to this conflict.", "release_date": "1997-07-12", "popularity": 4.120876, "original_title": "\u3082\u306e\u306e\u3051\u59eb", "backdrop_path": "/dB2rATwfCbsPGfRLIoluBnKdVHb.jpg", "vote_count": 810, "video": false, "adult": false, "vote_average": 8.05, "original_language": "ja", "id": 128, "genre_ids": [12, 14, 16]}, {"poster_path": "/aAmfIX3TT40zUHGcCKrlOZRKC7u.jpg", "title": "Inside Out", "overview": "Growing up can be a bumpy road, and it's no exception for Riley, who is uprooted from her Midwest life when her father starts a new job in San Francisco. Like all of us, Riley is guided by her emotions - Joy, Fear, Anger, Disgust and Sadness. The emotions live in Headquarters, the control center inside Riley's mind, where they help advise her through everyday life. As Riley and her emotions struggle to adjust to a new life in San Francisco, turmoil ensues in Headquarters. Although Joy, Riley's main and most important emotion, tries to keep things positive, the emotions conflict on how best to navigate a new city, house and school.", "release_date": "2015-06-09", "popularity": 10.754972, "original_title": "Inside Out", "backdrop_path": "/szytSpLAyBh3ULei3x663mAv5ZT.jpg", "vote_count": 2815, "video": false, "adult": false, "vote_average": 8.05, "original_language": "en", "id": 150540, "genre_ids": [35, 16, 10751]}, {"poster_path": "/y31QB9kn3XSudA15tV7UWQ9XLuW.jpg", "title": "Guardians of the Galaxy", "overview": "Light years from Earth, 26 years after being abducted, Peter Quill finds himself the prime target of a manhunt after discovering an orb wanted by Ronan the Accuser.", "release_date": "2014-07-30", "popularity": 11.696458, "original_title": "Guardians of the Galaxy", "backdrop_path": "/bHarw8xrmQeqf3t8HpuMY7zoK4x.jpg", "vote_count": 4329, "video": false, "adult": false, "vote_average": 8.03, "original_language": "en", "id": 118340, "genre_ids": [878, 14, 12]}, {"poster_path": "/tHbMIIF51rguMNSastqoQwR0sBs.jpg", "title": "The Godfather: Part II", "overview": "The continuing saga of the Corleone crime family tells the story of a young Vito Corleone growing up in Sicily and in 1910s New York; and follows Michael Corleone in the 1950s as he attempts to expand the family business into Las Vegas, Hollywood and Cuba", "release_date": "1974-12-20", "popularity": 5.240224, "original_title": "The Godfather: Part II", "backdrop_path": "/gLbBRyS7MBrmVUNce91Hmx9vzqI.jpg", "vote_count": 1628, "video": false, "adult": false, "vote_average": 8.03, "original_language": "en", "id": 240, "genre_ids": [18, 80]}, {"poster_path": "/rDMxjCYEVnvLC4nsBpB6wjL0LDy.jpg", "title": "Wolf Children", "overview": "Hana, a nineteen-year-old college student, falls in love with a man only for him to reveal his secret; he is a Wolf Man. Eventually the couple bear two children together; a son and daughter they name Ame and Yuki who both inherit the ability to transform into wolves from their father. When the man Hana fell in love with suddenly dies, she makes the decision to move to a rural town isolated from society to continue raising the children in protection.", "release_date": "2012-07-21", "popularity": 2.971873, "original_title": "\u304a\u304a\u304b\u307f\u3053\u3069\u3082\u306e\u96e8\u3068\u96ea", "backdrop_path": "/404XqOQeSMmofX1sxMxezmaSjJt.jpg", "vote_count": 174, "video": false, "adult": false, "vote_average": 8.01, "original_language": "ja", "id": 110420, "genre_ids": [16, 14, 10751, 18]}, {"poster_path": "/1hRoyzDtpgMU7Dz4JF22RANzQO7.jpg", "title": "The Dark Knight", "overview": "Batman raises the stakes in his war on crime. With the help of Lt. Jim Gordon and District Attorney Harvey Dent, Batman sets out to dismantle the remaining criminal organizations that plague the streets. The partnership proves to be effective, but they soon find themselves prey to a reign of chaos unleashed by a rising criminal mastermind known to the terrified citizens of Gotham as the Joker.", "release_date": "2008-07-16", "popularity": 9.617629, "original_title": "The Dark Knight", "backdrop_path": "/nnMC0BM6XbjIIrT4miYmMtPGcQV.jpg", "vote_count": 6872, "video": false, "adult": false, "vote_average": 7.99, "original_language": "en", "id": 155, "genre_ids": [18, 28, 80, 53]}, {"poster_path": "/811DjJTon9gD6hZ8nCjSitaIXFQ.jpg", "title": "Fight Club", "overview": "A ticking-time-bomb insomniac and a slippery soap salesman channel primal male aggression into a shocking new form of therapy. Their concept catches on, with underground \"fight clubs\" forming in every town, until an eccentric gets in the way and ignites an out-of-control spiral toward oblivion.", "release_date": "1999-10-14", "popularity": 6.950284, "original_title": "Fight Club", "backdrop_path": "/8uO0gUM8aNqYLs1OsTBQiXu0fEv.jpg", "vote_count": 4508, "video": false, "adult": false, "vote_average": 7.99, "original_language": "en", "id": 550, "genre_ids": [18]}, {"poster_path": "/qcL1YfkCxfhsdO6sDDJ0PpzMF9n.jpg", "title": "12 Angry Men", "overview": "The defense and the prosecution have rested and the jury is filing into the jury room to decide if a young Spanish-American is guilty or innocent of murdering his father. What begins as an open and shut case soon becomes a mini-drama of each of the jurors' prejudices and preconceptions about the trial, the accused, and each other.", "release_date": "1957-03-25", "popularity": 3.26054, "original_title": "12 Angry Men", "backdrop_path": "/lH2Ga8OzjU1XlxJ73shOlPx6cRw.jpg", "vote_count": 921, "video": false, "adult": false, "vote_average": 7.99, "original_language": "en", "id": 389, "genre_ids": [18]}]}