{"total_results": 226, "total_pages": 12, "page": 1, "results": [{"origin_country": ["US"], "poster_path": "/vxuoMW6YBt6UsxvMfRNwRl9LtWS.jpg", "name": "The Walking Dead", "overview": "Sheriff's deputy Rick Grimes awakens from a coma to find a post-apocalyptic world dominated by flesh-eating zombies. He sets out to find his family and encounters many other survivors along the way.", "popularity": 41.451041, "original_name": "The Walking Dead", "backdrop_path": "/zYFQM9G5j9cRsMNMuZAX64nmUMf.jpg", "first_air_date": "2010-10-31", "vote_count": 395, "vote_average": 7.35, "original_language": "en", "id": 1402, "genre_ids": [18]}, {"origin_country": ["US"], "poster_path": "/3iFm6Kz7iYoFaEcj4fLyZHAmTQA.jpg", "name": "Supernatural", "overview": "When they were boys, Sam and Dean Winchester lost their mother to a mysterious and demonic supernatural force. Subsequently, their father raised them to be soldiers. He taught them about the paranormal evil that lives in the dark corners and on the back roads of America ... and he taught them how to kill it. Now, the Winchester brothers crisscross the country in their '67 Chevy Impala, battling every kind of supernatural threat they encounter along the way. ", "popularity": 20.122867, "original_name": "Supernatural", "backdrop_path": "/vFGQEMDQzf5tkThlyfWaiffxIKp.jpg", "first_air_date": "2005-09-13", "vote_count": 160, "vote_average": 6.97, "original_language": "en", "id": 1622, "genre_ids": [18, 9648, 10765]}, {"origin_country": ["IE", "CA"], "poster_path": "/mBDlsOhNOV1MkNii81aT14EYQ4S.jpg", "name": "Vikings", "overview": "Vikings follows the adventures of Ragnar Lothbrok, the greatest hero of his age. The series tells the sagas of Ragnar's band of Viking brothers and his family, as he rises to become King of the Viking tribes. As well as being a fearless warrior, Ragnar embodies the Norse traditions of devotion to the gods. Legend has it that he was a direct descendant of Odin, the god of war and warriors.", "popularity": 19.065514, "original_name": "Vikings", "backdrop_path": "/A30ZqEoDbchvE7mCZcSp6TEwB1Q.jpg", "first_air_date": "2013-03-03", "vote_count": 148, "vote_average": 7.25, "original_language": "en", "id": 44217, "genre_ids": [18]}, {"origin_country": ["US"], "poster_path": "/lUFK7ElGCk9kVEryDJHICeNdmd1.jpg", "name": "The Flash", "overview": "After a particle accelerator causes a freak storm, CSI Investigator Barry Allen is struck by lightning and falls into a coma. Months later he awakens with the power of super speed, granting him the ability to move through Central City like an unseen guardian angel. Though initially excited by his newfound powers, Barry is shocked to discover he is not the only \"meta-human\" who was created in the wake of the accelerator explosion -- and not everyone is using their new powers for good. Barry partners with S.T.A.R. Labs and dedicates his life to protect the innocent. For now, only a few close friends and associates know that Barry is literally the fastest man alive, but it won't be long before the world learns what Barry Allen has become...The Flash.", "popularity": 17.567308, "original_name": "The Flash", "backdrop_path": "/mmxxEpTqVdwBlu5Pii7tbedBkPC.jpg", "first_air_date": "2014-10-07", "vote_count": 241, "vote_average": 6.94, "original_language": "en", "id": 60735, "genre_ids": [28, 12, 18, 878]}, {"origin_country": ["US"], "poster_path": "/wBfEtXcnXtw5VJwChYU82CG6Att.jpg", "name": "Once Upon a Time", "overview": "Once Upon a Time is an American fairy tale drama series that takes place in the fictional seaside town of Storybrooke, Maine, in which its residents are actually characters from various fairy tales that were transported to the \u201creal world\" town and robbed of their real memories by a powerful curse. Episodes typically feature a primary storyline in Storybrooke, as well as a secondary storyline usually from another point in a character's life before the curse was enacted.", "popularity": 15.923955, "original_name": "Once Upon a Time", "backdrop_path": "/rtgqBXbwvgEUIWtewEv7fBn2d44.jpg", "first_air_date": "2011-10-23", "vote_count": 86, "vote_average": 6.55, "original_language": "en", "id": 39272, "genre_ids": [18, 14, 9648]}, {"origin_country": ["CA", "US"], "poster_path": "/mo0FP1GxOFZT4UDde7RFDz5APXF.jpg", "name": "Arrow", "overview": "Spoiled billionaire playboy Oliver Queen is missing and presumed dead when his yacht is lost at sea. He returns five years later a changed man, determined to clean up the city as a hooded vigilante armed with a bow.", "popularity": 15.750231, "original_name": "Arrow", "backdrop_path": "/dXTyVDTIgeByvUOUEiHjbi8xX9A.jpg", "first_air_date": "2012-10-10", "vote_count": 253, "vote_average": 6.83, "original_language": "en", "id": 1412, "genre_ids": [28, 12, 80, 18, 9648, 878]}, {"origin_country": ["US"], "poster_path": "/n82soKV5XS5iYXF60eDO84kLPF3.jpg", "name": "Marvel's Agents of S.H.I.E.L.D.", "overview": "Agent Phil Coulson of S.H.I.E.L.D. (Strategic Homeland Intervention, Enforcement and Logistics Division) puts together a team of agents to investigate the new, the strange and the unknown around the globe, protecting the ordinary from the extraordinary.", "popularity": 15.354431, "original_name": "Marvel's Agents of S.H.I.E.L.D.", "backdrop_path": "/jOrfoGipT8QoDi54Qd9f5yhJCgw.jpg", "first_air_date": "2013-09-24", "vote_count": 143, "vote_average": 6.74, "original_language": "en", "id": 1403, "genre_ids": [14, 18, 28, 12, 878]}, {"origin_country": ["US"], "poster_path": "/z2iR0vmuoEU5eL2ONwygDuzzlOy.jpg", "name": "Gotham", "overview": "Before there was Batman, there was GOTHAM. \n\nEveryone knows the name Commissioner Gordon. He is one of the crime world's greatest foes, a man whose reputation is synonymous with law and order. But what is known of Gordon's story and his rise from rookie detective to Police Commissioner? What did it take to navigate the multiple layers of corruption that secretly ruled Gotham City, the spawning ground of the world's most iconic villains? And what circumstances created them \u2013 the larger-than-life personas who would become Catwoman, The Penguin, The Riddler, Two-Face and The Joker? ", "popularity": 13.639196, "original_name": "Gotham", "backdrop_path": "/bRFmBU0VPr9s1oeJHuS5Zb5nZQS.jpg", "first_air_date": "2014-09-22", "vote_count": 113, "vote_average": 6.87, "original_language": "en", "id": 60708, "genre_ids": [18, 14, 53, 80]}, {"origin_country": ["US"], "poster_path": "/dSBYRw1R001azIUsaatQXZAOcXk.jpg", "name": "Shameless", "overview": "Chicagoan Frank Gallagher is the proud single dad of six smart, industrious, independent kids, who without him would be... perhaps better off. When Frank's not at the bar spending what little money they have, he's passed out on the floor. But the kids have found ways to grow up in spite of him. They may not be like any family you know, but they make no apologies for being exactly who they are.", "popularity": 13.390808, "original_name": "Shameless", "backdrop_path": "/c0r3qQiuRvHNhdHSjlo8lrmrvAy.jpg", "first_air_date": "2011-01-09", "vote_count": 60, "vote_average": 7.07, "original_language": "en", "id": 34307, "genre_ids": [18, 35]}, {"origin_country": ["US"], "poster_path": "/5KfFnPRIgxan2eJ7XxMkucpq8VI.jpg", "name": "Law & Order: Special Victims Unit", "overview": "Law & Order: Special Victims Unit is an American police procedural crime drama television series set in New York City, where it is also primarily produced. In the style of the original Law & Order, episodes are often \"ripped from the headlines\" or loosely based on real crimes that have received media attention.", "popularity": 12.886035, "original_name": "Law & Order: Special Victims Unit", "backdrop_path": "/nALNtBMQVf27H4HiSZnKNfFVvXX.jpg", "first_air_date": "1999-09-20", "vote_count": 61, "vote_average": 6.01, "original_language": "en", "id": 2734, "genre_ids": [18]}, {"origin_country": ["US"], "poster_path": "/zqJxSzet2tAl34AiNj9zlfRWXx5.jpg", "name": "Black Sails", "overview": "The pirate adventure \u201cBlack Sails\u201d centers on the tales of Captain Flint and his men and takes place twenty years prior to Robert Louis Stevenson\u2019s classic \u201cTreasure Island\u201d. Flint, the most brilliant and most feared pirate captain of his day, takes on a fast-talking young addition to his crew who goes by the name John Silver. Threatened with extinction on all sides, they fight for the survival of New Providence Island, the most notorious criminal haven of its day \u2013 a debauched paradise teeming with pirates, prostitutes, thieves and fortune seekers, a place defined by both its enlightened ideals and its stunning brutality.", "popularity": 11.541783, "original_name": "Black Sails", "backdrop_path": "/5dMcDvKxqPgzSitf4cz6ug1P4Pv.jpg", "first_air_date": "2014-01-25", "vote_count": 61, "vote_average": 5.41, "original_language": "en", "id": 47665, "genre_ids": [12, 18]}, {"origin_country": ["US"], "poster_path": "/cbe7Fzze4uvcwzKnDfE6AibuyMR.jpg", "name": "Supergirl", "overview": "Twenty-four-year-old Kara Zor-El, who was taken in by the Danvers family when she was 13 after being sent away from Krypton, must learn to embrace her powers after previously hiding them. The Danvers teach her to be careful with her powers, until she has to reveal them during an unexpected disaster, setting her on her journey of heroism.", "popularity": 11.296372, "original_name": "Supergirl", "backdrop_path": "/tevGaNTGWFkJNfLw89k4T55zgIJ.jpg", "first_air_date": "2015-10-26", "vote_count": 55, "vote_average": 5.65, "original_language": "en", "id": 62688, "genre_ids": [28, 12, 18, 878]}, {"origin_country": ["US"], "poster_path": "/tvqi2y2FjiWTL5TRL1Pa6UX8Jef.jpg", "name": "New Girl", "overview": "Jessica Day is an offbeat and adorable girl in her late 20s who, after a bad breakup, moves in with three single guys. Goofy, positive, vulnerable and honest to a fault, Jess has faith in people, even when she shouldn't. Although she's dorky and awkward, she's comfortable in her own skin. More prone to friendships with women, she's not used to hanging with the boys\u2014especially at home.", "popularity": 11.045358, "original_name": "New Girl", "backdrop_path": "/gnYsL0nyQYUD8DD3NZeXxnPFznf.jpg", "first_air_date": "2011-09-20", "vote_count": 61, "vote_average": 6.41, "original_language": "en", "id": 1420, "genre_ids": [35]}, {"origin_country": ["US"], "poster_path": "/efrDcB26bugOroNshsPSrPEwJAI.jpg", "name": "Grimm", "overview": "After Portland homicide detective Nick Burkhardt discovers he's descended from an elite line of criminal profilers known as \"Grimms,\" he increasingly finds his responsibilities as a detective at odds with his new responsibilities as a Grimm.", "popularity": 10.688276, "original_name": "Grimm", "backdrop_path": "/ocWDGFHxddYWcZYeenO1y7ULeIi.jpg", "first_air_date": "2011-10-28", "vote_count": 82, "vote_average": 6.31, "original_language": "en", "id": 39351, "genre_ids": [18, 14, 9648]}, {"origin_country": ["US"], "poster_path": "/jXL3G8BohotsaKb4wcSwz3s4zxI.jpg", "name": "Elementary", "overview": "A modern-day drama about a crime-solving duo that cracks the NYPD's most impossible cases. Following his fall from grace in London and a stint in rehab, eccentric Sherlock escapes to Manhattan where his wealthy father forces him to live with his worst nightmare - a sober companion, Dr. Watson.", "popularity": 10.43992, "original_name": "Elementary", "backdrop_path": "/w6SaYrbwR5PY4mcrJYIXfWC5Ker.jpg", "first_air_date": "2012-09-27", "vote_count": 74, "vote_average": 6.4, "original_language": "en", "id": 1415, "genre_ids": [18, 9648, 80]}, {"origin_country": ["US"], "poster_path": "/ljgxvwRXuKgdht3zREaasby1SzL.jpg", "name": "The Good Wife", "overview": "The Good Wife is a legal drama starring Emmy Award winner Julianna Margulies as a wife and mother who boldly assumes full responsibility for her family and re-enters the workforce after her husband's very public sex and political corruption scandal lands him in jail.", "popularity": 10.210635, "original_name": "The Good Wife", "backdrop_path": "/a67tJBJjKVob1Ghs99gUBpTKDXp.jpg", "first_air_date": "2009-09-22", "vote_count": 40, "vote_average": 5.86, "original_language": "en", "id": 1435, "genre_ids": [18]}, {"origin_country": ["US"], "poster_path": "/4tfVjOc5mD0dnakllL8nxyooxmO.jpg", "name": "Lucifer", "overview": "Lucifer, the charming, charismatic and handsome-as-hell original fallen angel, who after becoming bored and unhappy in Hell, takes refuge in Los Angeles, where he uses his gift of persuasion to punish bad guys. But the longer he's away from the underworld, the greater the threat that the worst of humanity could escape.", "popularity": 10.209926, "original_name": "Lucifer", "backdrop_path": "/mcj4ZAh1WlswDx5i0xK1VIV03W7.jpg", "first_air_date": "2016-01-25", "vote_count": 30, "vote_average": 5.92, "original_language": "en", "id": 63174, "genre_ids": [80, 10765]}, {"origin_country": ["US"], "poster_path": "/xn3QM6aInhQp631K2lXpGFox2Kc.jpg", "name": "iZombie", "overview": "A medical student who becomes a zombie joins a Coroner's Office in order to gain access to the brains she must reluctantly eat so that she can maintain her humanity. But every brain she eats, she also inherits their memories and must now solve their deaths with help from the Medical examiner and a police detective.", "popularity": 10.166361, "original_name": "iZombie", "backdrop_path": "/d2YDPTQPe3mI2LqBWwb0CchN54f.jpg", "first_air_date": "2015-03-17", "vote_count": 43, "vote_average": 6.66, "original_language": "en", "id": 60866, "genre_ids": [27, 18, 80, 10765]}, {"origin_country": ["US"], "poster_path": "/hdtCGRP6yYQNqUSqCkCWidPMbgr.jpg", "name": "Castle", "overview": "After a serial killer imitates the plots of his novels, successful mystery novelist Richard \"Rick\" Castle receives permission from the Mayor of New York City to tag along with an NYPD homicide investigation team for research purposes.", "popularity": 9.985973, "original_name": "Castle", "backdrop_path": "/d6JeM0cdG4iVJAdm9kseKe5JYAv.jpg", "first_air_date": "2009-03-08", "vote_count": 97, "vote_average": 7.41, "original_language": "en", "id": 1419, "genre_ids": [18, 80]}, {"origin_country": ["US"], "poster_path": "/epouilElDvE9FggEmIcArpuzaq.jpg", "name": "The Magicians", "overview": "Brakebills University is a secret institution specializing in magic. There, amidst an unorthodox education of spellcasting, a group of twenty-something friends soon discover that a magical fantasy world they read about as children is all too real\u2014 and poses grave danger to humanity.", "popularity": 9.755854, "original_name": "The Magicians", "backdrop_path": "/lYy3CCH3CLmTpzi2zT3sIMQjUvh.jpg", "first_air_date": "2015-12-16", "vote_count": 15, "vote_average": 6.33, "original_language": "en", "id": 64432, "genre_ids": [18, 14, 27]}]}