{"total_results": 540, "total_pages": 27, "page": 1, "results": [{"origin_country": ["US"], "poster_path": "/1yeVJox3rjo2jBKrrihIMj7uoS9.jpg", "name": "Breaking Bad", "overview": "Breaking Bad is an American crime drama television series created and produced by Vince Gilligan. Set and produced in Albuquerque, New Mexico, Breaking Bad is the story of Walter White, a struggling high school chemistry teacher who is diagnosed with inoperable lung cancer at the beginning of the series. He turns to a life of crime, producing and selling methamphetamine, in order to secure his family's financial future before he dies, teaming with his former student, Jesse Pinkman. Heavily serialized, the series is known for positioning its characters in seemingly inextricable corners and has been labeled a contemporary western by its creator.", "popularity": 18.441806, "original_name": "Breaking Bad", "backdrop_path": "/eSzpy96DwBujGFj0xMbXBcGcfxX.jpg", "first_air_date": "2008-01-19", "vote_count": 486, "vote_average": 8.45, "original_language": "en", "id": 1396, "genre_ids": [18]}, {"origin_country": ["US"], "poster_path": "/mWNadwBZIx8NyEw4smGftYtHHrE.jpg", "name": "Firefly", "overview": "Firefly is set in the year 2517, after the arrival of humans in a new star system and follows the adventures of the renegade crew of Serenity, a \"Firefly-class\" spaceship. The ensemble cast portrays the nine characters who live on Serenity.", "popularity": 6.589581, "original_name": "Firefly", "backdrop_path": "/qlJB8bkK1JXAQ0m02OYS1ArS6DZ.jpg", "first_air_date": "2002-09-20", "vote_count": 130, "vote_average": 8.43, "original_language": "en", "id": 1437, "genre_ids": [37, 18, 10759, 10765]}, {"origin_country": ["US"], "poster_path": "/jIhL6mlT7AblhbHJgEoiBIOUVl1.jpg", "name": "Game of Thrones", "overview": "Seven noble families fight for control of the mythical land of Westeros. Friction between the houses leads to full-scale war. All while a very ancient evil awakens in the farthest north. Amidst the war, a neglected military order of misfits, the Night's Watch, is all that stands between the realms of men and icy horrors beyond.\n\n", "popularity": 19.546559, "original_name": "Game of Thrones", "backdrop_path": "/mUkuc2wyV9dHLG0D0Loaw5pO2s8.jpg", "first_air_date": "2011-04-17", "vote_count": 527, "vote_average": 8.43, "original_language": "en", "id": 1399, "genre_ids": [18, 10765]}, {"origin_country": ["US"], "poster_path": "/jViSxrU3NBvmNsQBpf37sPBmBOq.jpg", "name": "Cosmos: A Spacetime Odyssey", "overview": "Cosmos: A Spacetime Odyssey invents new modes of scientific storytelling to reveal the grandeur of the universe and re-invent celebrated elements of the original series, including the Cosmic Calendar and the Ship of the Imagination. \n\nUniting scepticism and wonder, and weaving rigorous science with visual, emotional and spiritual elements, it is a transcendent experience \u2013 a vision of the cosmos on the grandest scale we know.", "popularity": 2.793297, "original_name": "Cosmos: A Spacetime Odyssey", "backdrop_path": "/137KZSsLYr4iLRngVFpHybr91jJ.jpg", "first_air_date": "2014-03-09", "vote_count": 32, "vote_average": 8.28, "original_language": "en", "id": 58474, "genre_ids": [99]}, {"origin_country": [], "poster_path": "/4ukKkwZWDSCxdXKBWUEfLSuHWmS.jpg", "name": "Making a Murderer", "overview": "Set in America\u0092s Heartland, Making a Murderer follows the harrowing story of Steven Avery, an outsider from the wrong side of the tracks, convicted and later exonerated of a brutal assault. His release triggered major criminal justice reform legislation, and he filed a lawsuit that threatened to expose corruption in local law enforcement and award him millions of dollars. But in the midst of his very public civil case, he suddenly finds himself the prime suspect in a grisly new crime.", "popularity": 3.844465, "original_name": "Making a Murderer", "backdrop_path": "/28hMBZGoeKaz6LoNbztlDIoUQH9.jpg", "first_air_date": "2015-12-18", "vote_count": 17, "vote_average": 8.26, "original_language": "en", "id": 64439, "genre_ids": [99]}, {"origin_country": ["GB"], "poster_path": "/vHXZGe5tz4fcrqki9ZANkJISVKg.jpg", "name": "Sherlock", "overview": "A modern update finds the famous sleuth and his doctor partner solving crime in 21st century London.", "popularity": 10.042942, "original_name": "Sherlock", "backdrop_path": "/d6Aidd0YoC2WYEYSJRAl63kQnYK.jpg", "first_air_date": "2010-07-25", "vote_count": 211, "vote_average": 8.23, "original_language": "en", "id": 19885, "genre_ids": [9648, 18, 80]}, {"origin_country": ["JP"], "poster_path": "/aYVBoq5MEtOBLlivSzDSpteZfXV.jpg", "name": "Fullmetal Alchemist: Brotherhood", "overview": "Edward and Alphonse Elric's reckless disregard for alchemy's fun\u00addamental laws ripped half of Ed's limbs from his body and left Al's soul clinging to a cold suit of armor. To restore what was lost, the brothers scour a war-torn land for the Philosopher's Sto\u00adne, a fabled relic which grants the ability to perform alchemy in impossible ways.\n\nThe Elrics are not alone in their search; the corrupt State Military is also eager to harness the artifact's power. So too are the strange Homunculi and their shadowy creator. The mythical gem lures exotic alchemists from distant kingdoms, scarring some deeply enough to inspire murder. As the Elrics find their course altered by these enemies and allies, their purpose remains unchanged \u2013 and their bond unbreakable.", "popularity": 3.07731, "original_name": "\u92fc\u306e\u932c\u91d1\u8853\u5e2b FULLMETAL ALCHEMIST", "backdrop_path": "/c368lahfH9sgdDHKp6ds7EprIga.jpg", "first_air_date": "2009-04-05", "vote_count": 19, "vote_average": 8.21, "original_language": "ja", "id": 31911, "genre_ids": [16, 18, 10759, 9648]}, {"origin_country": ["US"], "poster_path": "/mWnHXN6uWFAnySGxN9TljNKnwj6.jpg", "name": "Stargate SG-1", "overview": "The story of Stargate SG-1 begins about a year after the events of the feature film, when the United States government learns that an ancient alien device called the Stargate can access a network of such devices on a multitude of planets. SG-1 is an elite Air Force special operations team, one of more than two dozen teams from Earth who explore the galaxy and defend against alien threats such as the Goa'uld, Replicators, and the Ori.", "popularity": 7.874833, "original_name": "Stargate SG-1", "backdrop_path": "/qOc3Y92gNfhIXSH59GCIKqkVhSK.jpg", "first_air_date": "1997-07-27", "vote_count": 84, "vote_average": 8.19, "original_language": "en", "id": 4629, "genre_ids": [28, 12, 14, 878]}, {"origin_country": ["US"], "poster_path": "/u0cLcBQITrYqfHsn06fxnQwtqiE.jpg", "name": "The Sopranos", "overview": "The Sopranos is an American television drama created by David Chase. The series revolves around the New Jersey-based Italian-American mobster Tony Soprano and the difficulties he faces as he tries to balance the conflicting requirements of his home life and the criminal organization he heads. Those difficulties are often highlighted through his ongoing professional relationship with psychiatrist Jennifer Melfi. The show features Tony's family members and Mafia associates in prominent roles and story arcs, most notably his wife Carmela and his cousin and prot\u00e9g\u00e9 Christopher Moltisanti.", "popularity": 5.360009, "original_name": "The Sopranos", "backdrop_path": "/8GZ91vtbYOMp05qruAGPezWC0Ja.jpg", "first_air_date": "1999-01-10", "vote_count": 78, "vote_average": 8.19, "original_language": "en", "id": 1398, "genre_ids": [18]}, {"origin_country": ["GB", "US"], "poster_path": "/bUrt6oeXd04ImEwQjO9oLjRguaA.jpg", "name": "Band of Brothers", "overview": "Drawn from interviews with survivors of Easy Company, as well as their journals and letters, Band of Brothers chronicles the experiences of these men from paratrooper training in Georgia through the end of the war. As an elite rifle company parachuting into Normandy early on D-Day morning, participants in the Battle of the Bulge, and witness to the horrors of war, the men of Easy knew extraordinary bravery and extraordinary fear - and became the stuff of legend. Based on Stephen E. Ambrose's acclaimed book of the same name.", "popularity": 6.171308, "original_name": "Band of Brothers", "backdrop_path": "/1LrtAhWPSEetJLjblXvnaYtl7eA.jpg", "first_air_date": "2001-09-09", "vote_count": 67, "vote_average": 8.09, "original_language": "en", "id": 4613, "genre_ids": [18, 10768]}, {"origin_country": ["US"], "poster_path": "/8ZfPKg1xTahEigpDA53bRmmLdvs.jpg", "name": "Star Trek: The Next Generation", "overview": "Star Trek: The Next Generation is an American science fiction television series created by Gene Roddenberry as part of the Star Trek franchise. The show is set in the nearby regions of the Milky Way galaxy, approximately during the 2360s and features a new crew and a new starship Enterprise.", "popularity": 5.432897, "original_name": "Star Trek: The Next Generation", "backdrop_path": "/8do6gZErem4wfdPwALiT8agtJfb.jpg", "first_air_date": "1987-09-28", "vote_count": 64, "vote_average": 8.09, "original_language": "en", "id": 655, "genre_ids": [28, 12, 18, 878]}, {"origin_country": ["US"], "poster_path": "/xV7FKNqOwnO3aJSiRM8WCrwdRS8.jpg", "name": "The Pacific", "overview": "The series is a companion piece to the 2001 miniseries Band of Brothers and focuses on the United States Marine Corps' actions in the Pacific Theater of Operations within the wider Pacific War. Whereas Band of Brothers followed one company of the 506th Parachute Infantry Regiment through the European Theater, The Pacific centers on the experiences of three Marines who were all in different regiments of the 1st Marine Division.", "popularity": 2.606814, "original_name": "The Pacific", "backdrop_path": "/mtyd3wMdrYzAhj6iDOE0PXcQkvr.jpg", "first_air_date": "2010-03-14", "vote_count": 18, "vote_average": 8.08, "original_language": "en", "id": 16997, "genre_ids": [36, 18, 12, 10752, 10759]}, {"origin_country": ["JP"], "poster_path": "/nhIkKuOpOXOE6ud0naCHTjRoOwq.jpg", "name": "Death Note", "overview": "Light Yagami is a 17-year-old ace student who is bored of school, life and the state of the world. One day, on his way home after school he fiends a black notebook with \"Death Note\" written on it. The first few sentences of the book state that everyone whose name is written into it is going to die through the power of a Shinigami. At first he discards it as a joke but later he realizes that it is the tool with which he can change the world to a place without crime or criminals. However, after the first criminals die, the authorities are forced to do something and send the legendary detective L to track down Light.", "popularity": 2.176226, "original_name": "Death Note", "backdrop_path": "/oV3yAFd6TUcKy1U0CV6OUt6gnRB.jpg", "first_air_date": "2006-10-04", "vote_count": 44, "vote_average": 8.08, "original_language": "ja", "id": 13916, "genre_ids": [16, 53]}, {"origin_country": ["US"], "poster_path": "/egrBNjbMKbUao19dJcSNiw4xlft.jpg", "name": "True Detective", "overview": "An American anthology police detective series utilizing multiple timelines in which investigations seem to unearth personal and professional secrets of those involved, both within or outside the law.", "popularity": 4.733623, "original_name": "True Detective", "backdrop_path": "/qDEIZWnyRxWTB9zCjyyj4mbURVp.jpg", "first_air_date": "2014-01-12", "vote_count": 178, "vote_average": 8.03, "original_language": "en", "id": 46648, "genre_ids": [18]}, {"origin_country": ["US"], "poster_path": "/6wzfCXg2I2LBuaEjh7fkMHXBR9i.jpg", "name": "Twin Peaks", "overview": "The body of Laura Palmer is washed up on a beach near the small Washington state town of Twin Peaks. FBI Special Agent Dale Cooper is called in to investigate her strange demise only to uncover a web of mystery that ultimately leads him deep into the heart of the surrounding woodland and his very own soul.", "popularity": 3.327847, "original_name": "Twin Peaks", "backdrop_path": "/3Y91NnZZyTS8UbgJUw3AZ6WWKTN.jpg", "first_air_date": "1990-04-08", "vote_count": 40, "vote_average": 8.03, "original_language": "en", "id": 1920, "genre_ids": [18, 9648, 53]}, {"origin_country": ["US"], "poster_path": "/M8HjXeXQy4Ta4MOrCmMHLr8pBl.jpg", "name": "Deadwood", "overview": "Deadwood is the story of the early days of Deadwood, South Dakota; woven around actual historic events with most of the main characters based on real people. Deadwood starts as a gold mining camp and gradually turns from a lawless wild-west community into an organized wild-west civilized town. The story focuses on the real-life characters Seth Bullock and Al Swearengen.", "popularity": 2.223268, "original_name": "Deadwood", "backdrop_path": "/w0LSB0POet7MR91nOQCXTOetia2.jpg", "first_air_date": "2004-03-21", "vote_count": 36, "vote_average": 8.01, "original_language": "en", "id": 1406, "genre_ids": [37, 18]}, {"origin_country": ["IT"], "poster_path": "/4XFBM8FlA7FidB3ZxMLNeM6KJH1.jpg", "name": "Upstairs", "overview": "Joe, Matt, Sarah and Francine are four college students. The girls are roommates downstairs while the boys are roommates... Upstairs. This bunch could not be more different. You'll find out not only their choice of majors, but by their drastically different cultural backgrounds too. It can cause friction to say the least, but hilarity will always ensue. Will opposites attract?", "popularity": 1.011192, "original_name": "Upstairs", "backdrop_path": "/55Vuc2uYHUsZzP8rYYUyeowGbJ3.jpg", "first_air_date": "2013-10-21", "vote_count": 39, "vote_average": 8.01, "original_language": "en", "id": 62718, "genre_ids": [35]}, {"origin_country": ["US"], "poster_path": "/ydmfheI5cJ4NrgcupDEwk8I8y5q.jpg", "name": "Dexter", "overview": "Dexter is an American television drama series. The series centers on Dexter Morgan, a blood spatter pattern analyst for 'Miami Metro Police Department' who also leads a secret life as a serial killer, hunting down criminals who have slipped through the cracks of justice.", "popularity": 6.942746, "original_name": "Dexter", "backdrop_path": "/kgadTwNJYYGZ7LTrw9X7KDiRCfV.jpg", "first_air_date": "2006-10-01", "vote_count": 183, "vote_average": 8.01, "original_language": "en", "id": 1405, "genre_ids": [18, 9648]}, {"origin_country": ["US"], "poster_path": "/swCHJglRufH6rjmVYIXApRtCEPx.jpg", "name": "Archer", "overview": "Sterling Archer is the world's most daunting spy. He works for ISIS, a spy agency run by his mother. In between dealing with his boss and his co-workers - one of whom is his ex-girlfriend - Archer manages to annoy or seduce everyone that crosses his path. His antics are only excusable because at the end of the day, he still somehow always manages to thwart whatever crises was threatening mankind.", "popularity": 6.30536, "original_name": "Archer", "backdrop_path": "/AnPYfNKssFVdL74Mducz25FTp2q.jpg", "first_air_date": "2009-09-17", "vote_count": 50, "vote_average": 8.01, "original_language": "en", "id": 10283, "genre_ids": [10759, 16, 18, 35]}, {"origin_country": ["US"], "poster_path": "/luf6fd2QTdUQWXqZZ2J5zXdfL6G.jpg", "name": "The Lost Room", "overview": "A detective investigates a mysterious motel room, which acts as a portal to an alternate universe.", "popularity": 1.941368, "original_name": "The Lost Room", "backdrop_path": "/64DLqKJ6K0RlqS5csUMXpFGvU9N.jpg", "first_air_date": "2006-12-11", "vote_count": 15, "vote_average": 8, "original_language": "en", "id": 3868, "genre_ids": [9648, 10765]}]}