{"total_results": 124, "dates": {"minimum": "2016-03-23", "maximum": "2016-04-13"}, "total_pages": 7, "page": 1, "results": [{"poster_path": "/6bCplVkhowCjTHXWv49UjRPn0eK.jpg", "title": "Batman v Superman: Dawn of Justice", "overview": "Fearing the actions of a god-like Super Hero left unchecked, Gotham City\u2019s own formidable, forceful vigilante takes on Metropolis\u2019s most revered, modern-day savior, while the world wrestles with what sort of hero it really needs. And with Batman and Superman at war with one another, a new threat quickly arises, putting mankind in greater danger than it\u2019s ever known before.", "release_date": "2016-03-23", "popularity": 26.471989, "original_title": "Batman v Superman: Dawn of Justice", "backdrop_path": "/15PbZtjRJ4zgQA8XS0otL70piQi.jpg", "vote_count": 156, "video": false, "adult": false, "vote_average": 5.09, "original_language": "en", "id": 209112, "genre_ids": [28, 12, 14, 878]}, {"poster_path": "/b77l5vmp6PYsc98LE6Uf1mXtmHh.jpg", "title": "The Huntsman Winter's War", "overview": "As two evil sisters prepare to conquer the land, two renegades - Eric the Huntsmen - who previously aided Snow White in defeating Ravenna, and his forbidden lover, Sara set out to stop them.", "release_date": "2016-04-06", "popularity": 3.629707, "original_title": "The Huntsman Winter's War", "backdrop_path": "/l9ZCewz1DmiCVoR7qMZLHatNqzH.jpg", "vote_count": 14, "video": false, "adult": false, "vote_average": 6.11, "original_language": "en", "id": 290595, "genre_ids": [28, 12, 18, 14]}, {"poster_path": "/vOipe2myi26UDwP978hsYOrnUWC.jpg", "title": "The Jungle Book", "overview": "An orphan boy is raised in the Jungle with the help of a pack of wolves, a bear and a black panther.", "release_date": "2016-04-07", "popularity": 3.41965, "original_title": "The Jungle Book", "backdrop_path": "/8Be7azY4msT3c3Ixhucwt3Ug15t.jpg", "vote_count": 29, "video": false, "adult": false, "vote_average": 6.52, "original_language": "en", "id": 278927, "genre_ids": [12, 18, 14]}, {"poster_path": "/gN7Su6RP9zDXJigHGyGLnRaWqsb.jpg", "title": "My Big Fat Greek Wedding 2", "overview": "The continuing adventures of the Portokalos family. A follow-up to the 2002 comedy, \"My Big Fat Greek Wedding.\"", "release_date": "2016-03-24", "popularity": 2.802619, "original_title": "My Big Fat Greek Wedding 2", "backdrop_path": "/yNgowLEX1CdSWzcQyfMNVBpOcJ6.jpg", "vote_count": 22, "video": false, "adult": false, "vote_average": 4.05, "original_language": "en", "id": 302688, "genre_ids": [35]}, {"poster_path": "/2tR5dfWONNPCjW3Th2RFk2DuLsY.jpg", "title": "The Visitors: Bastille Day", "overview": "Stuck in the corridors of time, Godefroy de Montmirail and his faithful servant Jacquouille are projected to a time of profound political and social upheavals: the French Revolution... specifically, The Terror, time of great dangers, during which the descendants of Godefroy and Jacquouille had their castle and all their property confiscated by arrogant aristocrats, fleeing and lifes hanging by a thread.", "release_date": "2016-03-23", "popularity": 2.801346, "original_title": "Les Visiteurs: La R\u00e9volution", "backdrop_path": "/tkHGAwmM5LbirR9Vs4908r6F0La.jpg", "vote_count": 2, "video": false, "adult": false, "vote_average": 4.75, "original_language": "fr", "id": 248705, "genre_ids": [35]}, {"poster_path": "/gmgyzR6QCpcPyybPlqk9dscnjrl.jpg", "title": "Before I Wake", "overview": "Before I Wake is a haunting, emotionally absorbing supernatural thriller about an orphaned child whose dreams - and nightmares - manifest physically as he sleeps.", "release_date": "2016-04-07", "popularity": 2.324163, "original_title": "Before I Wake", "backdrop_path": "/thaDwt0Q0ttt0x7PyR6ZKvtgmom.jpg", "vote_count": 1, "video": false, "adult": false, "vote_average": 8.5, "original_language": "en", "id": 301804, "genre_ids": [53, 27]}, {"poster_path": "/4z7S1MF3eU3fnma6ArzXvYl7TL6.jpg", "title": "Hardcore Henry", "overview": "Henry, a newly resurrected cyborg who must save his wife/creator from the clutches of a psychotic tyrant with telekinetic powers, AKAN, and his army of mercenaries. Fighting alongside Henry is Jimmy, who is Henry's only hope to make it through the day. Hardcore takes place over the course of one day, in Moscow, Russia.", "release_date": "2016-04-07", "popularity": 2.215433, "original_title": "Hardcore Henry", "backdrop_path": "/w80QcfnyBpS84AFkKl45CnQ5fIN.jpg", "vote_count": 8, "video": false, "adult": false, "vote_average": 6, "original_language": "en", "id": 325348, "genre_ids": [28, 12, 878]}, {"poster_path": "/mBHYoXSCAV9YXTh1ZxLeShtdJse.jpg", "title": "Demolition", "overview": "An emotionally desperate investment banker finds hope through a woman he meets in Chicago.", "release_date": "2016-04-06", "popularity": 2.185298, "original_title": "Demolition", "backdrop_path": "/tsDXi0k6be6jHJYt59rb9i4Gh9P.jpg", "vote_count": 14, "video": false, "adult": false, "vote_average": 4.25, "original_language": "en", "id": 303991, "genre_ids": [18]}, {"poster_path": "/oik7MuhyhslSbHdoDYpIw06prS7.jpg", "title": "The Disappointments Room", "overview": "A mother and her young son release unimaginable horrors from the attic of their rural dream home.", "release_date": "2016-03-25", "popularity": 2.17689, "original_title": "The Disappointments Room", "backdrop_path": "/1i62Vnt07JSRDJxfOQDbekP5na1.jpg", "vote_count": 6, "video": false, "adult": false, "vote_average": 1.08, "original_language": "en", "id": 293452, "genre_ids": [18, 53]}, {"poster_path": "/u54AlbDKU2gMKEKobXHXzjTxsGM.jpg", "title": "One Way Trip", "overview": "Four best friends, Yong-bi, Ji-gong, Sang-woo and Doo-man who just turned twenty and just came of age took the road to Pohang, a small city near the beach\u2014since one of the friends, Sang-woo, is enlisting in the marine corps the day after. On the last day before Sang-woo goes off to the army, a life-changing incident dawns in front of them. The four best friends now face a situation beyond their control, and are forced through an irrevocable day.", "release_date": "2016-03-24", "popularity": 2.050731, "original_title": "\uae00\ub85c\ub9ac\ub370\uc774", "backdrop_path": "/eRIc6QEW4xGj7UNiJkovdyqXlV5.jpg", "vote_count": 0, "video": false, "adult": false, "vote_average": 0, "original_language": "ko", "id": 381375, "genre_ids": [18]}, {"poster_path": "/iN0ojHuKEGrKCtwIjiaWaqMhMny.jpg", "title": "Get a Job", "overview": "Life after college graduation is not exactly going as planned for Will and Jillian who find themselves lost in a sea of increasingly strange jobs. But with help from their family, friends and coworkers they soon discover that the most important (and hilarious) adventures are the ones that we don't see coming.", "release_date": "2016-03-25", "popularity": 2.029254, "original_title": "Get a Job", "backdrop_path": "/gwDnVDS4ltWRcSdKnmcTfrfLopU.jpg", "vote_count": 3, "video": false, "adult": false, "vote_average": 2.17, "original_language": "en", "id": 186759, "genre_ids": [35]}, {"poster_path": "/duksGz4WUrYPN9YyqPlUJgSjfRN.jpg", "title": "Ratchet & Clank", "overview": "Ratchet and Clank tells the story of two unlikely heroes as they struggle to stop a vile alien named Chairman Drek from destroying every planet in the Solana Galaxy. When the two stumble upon a dangerous weapon capable of destroying entire planets, they must join forces with a team of colorful heroes called The Galactic Rangers in order to save the galaxy. Along the way they'll learn about heroism, friendship, and the importance of discovering one's own identity.", "release_date": "2016-04-13", "popularity": 1.902617, "original_title": "Ratchet & Clank", "backdrop_path": "/bGkXQddqqArvw4xTLGd3fO8HjH0.jpg", "vote_count": 6, "video": false, "adult": false, "vote_average": 6.5, "original_language": "en", "id": 234004, "genre_ids": [28, 12, 16, 35, 10751, 878]}, {"poster_path": "/wjf8SpmT0wNXqUKgUGUoOYq3dwg.jpg", "title": "The Fury", "overview": "Based on the novel by A.F.Th. van der Heijden, written and directed by Andre van Duren. Tragi-comedy about \u201cTidy Tini\u201d. The fury amuses and astonishes the viewer. But when we find out what happened to her in her youth we are left devastated, and a shiver will replace our smile.", "release_date": "2016-03-24", "popularity": 1.85929, "original_title": "De helleveeg", "backdrop_path": "/yxvy4cCmsCMFfOPyTy3uaaIqCNn.jpg", "vote_count": 0, "video": false, "adult": false, "vote_average": 0, "original_language": "nl", "id": 384243, "genre_ids": [18, 35]}, {"poster_path": "/KOZYy7J9aCuEiPtaHYOkuaeZUc.jpg", "title": "M\u00e9decin de campagne", "overview": "", "release_date": "2016-03-23", "popularity": 1.835277, "original_title": "M\u00e9decin de campagne", "backdrop_path": "/qriiU7iMAkKqHtJDfFcYmF9qAIj.jpg", "vote_count": 0, "video": false, "adult": false, "vote_average": 0, "original_language": "fr", "id": 375950, "genre_ids": [18, 35]}, {"poster_path": "/xFW3FJIunAgQZ3BtGma9V3fk5Xo.jpg", "title": "La Dream Team", "overview": "", "release_date": "2016-03-23", "popularity": 1.835248, "original_title": "La Dream Team", "backdrop_path": null, "vote_count": 1, "video": false, "adult": false, "vote_average": 10, "original_language": "fr", "id": 381351, "genre_ids": [35]}, {"poster_path": "/rfc9PI11zqoWe3mWr3HralGpiVF.jpg", "title": "Rosalie Blum", "overview": "", "release_date": "2016-03-23", "popularity": 1.834973, "original_title": "Rosalie Blum", "backdrop_path": "/2NYMHEtfaTzLEP8BwEkqzF8xshn.jpg", "vote_count": 1, "video": false, "adult": false, "vote_average": 4, "original_language": "fr", "id": 381353, "genre_ids": [35]}, {"poster_path": null, "title": "Gali Brothers", "overview": "What the movie has in store for you, wait and watch this space for more updates.", "release_date": "2016-03-24", "popularity": 1.805332, "original_title": "Gali Brothers", "backdrop_path": null, "vote_count": 0, "video": false, "adult": false, "vote_average": 0, "original_language": "en", "id": 278153, "genre_ids": [18]}, {"poster_path": null, "title": "Sex & Crime", "overview": "Valentin (Wotan Wilke M\u00f6hring) thought it an excellent idea to let his best friend Theo (Fabian Busch) its new, large house for one night, so that the therein undisturbed with the attractive waitress M\u00f6rli (Claudia Eisinger) can enjoy. As the best-selling author and passionate chess player Theo currently has trouble", "release_date": "2016-03-24", "popularity": 1.788775, "original_title": "Sex & Crime", "backdrop_path": null, "vote_count": 1, "video": false, "adult": false, "vote_average": 8, "original_language": "de", "id": 367841, "genre_ids": [35]}, {"poster_path": "/oRwxT0VpkNyxKjoCb1gl1e4yrV8.jpg", "title": "Assassination Classroom: Graduation", "overview": "Story continues with the students' own conflicts, Koro Sensei\u2019s identity and the fate of the world. The time limit for assassination is approaching.", "release_date": "2016-03-25", "popularity": 1.785346, "original_title": "\u6697\u6bba\u6559\u5ba4 -\u5352\u696d\u7de8-", "backdrop_path": null, "vote_count": 0, "video": false, "adult": false, "vote_average": 0, "original_language": "ja", "id": 359628, "genre_ids": [35, 28]}, {"poster_path": "/euQxB7Ups88gB1LMWhhreoup2hF.jpg", "title": "Baskin", "overview": "Feature length version of the 2013 Turkish short film about police making a horrifying discovery in an apartment building.", "release_date": "2016-03-25", "popularity": 1.762322, "original_title": "Baskin", "backdrop_path": null, "vote_count": 7, "video": false, "adult": false, "vote_average": 4.64, "original_language": "en", "id": 334394, "genre_ids": [27]}]}