{"total_results": 19723, "total_pages": 987, "page": 1, "results": [{"poster_path": "/inVq3FRqcYIRl2la8iZikYYxFNR.jpg", "title": "Deadpool", "overview": "Based upon Marvel Comics\u2019 most unconventional anti-hero, DEADPOOL tells the origin story of former Special Forces operative turned mercenary Wade Wilson, who after being subjected to a rogue experiment that leaves him with accelerated healing powers, adopts the alter ego Deadpool. Armed with his new abilities and a dark, twisted sense of humor, Deadpool hunts down the man who nearly destroyed his life.", "release_date": "2016-02-09", "popularity": 41.894953, "original_title": "Deadpool", "backdrop_path": "/n1y094tVDFATSzkTnFxoGZ1qNsG.jpg", "vote_count": 2216, "video": false, "adult": false, "vote_average": 7.17, "original_language": "en", "id": 293660, "genre_ids": [28, 12, 35]}, {"poster_path": "/nN4cEJMHJHbJBsp3vvvhtNWLGqg.jpg", "title": "The Hunger Games: Mockingjay - Part 2", "overview": "With the nation of Panem in a full scale war, Katniss confronts President Snow in the final showdown. Teamed with a group of her closest friends \u2013 including Gale, Finnick, and Peeta \u2013 Katniss goes off on a mission with the unit from District 13 as they risk their lives to stage an assassination attempt on President Snow who has become increasingly obsessed with destroying her. The mortal traps, enemies, and moral choices that await Katniss will challenge her more than any arena she faced in The Hunger Games.", "release_date": "2015-11-18", "popularity": 37.995645, "original_title": "The Hunger Games: Mockingjay - Part 2", "backdrop_path": "/qjn3fzCAHGfl0CzeUlFbjrsmu4c.jpg", "vote_count": 1279, "video": false, "adult": false, "vote_average": 6.8, "original_language": "en", "id": 131634, "genre_ids": [28, 12, 18]}, {"poster_path": "/6bCplVkhowCjTHXWv49UjRPn0eK.jpg", "title": "Batman v Superman: Dawn of Justice", "overview": "Fearing the actions of a god-like Super Hero left unchecked, Gotham City\u2019s own formidable, forceful vigilante takes on Metropolis\u2019s most revered, modern-day savior, while the world wrestles with what sort of hero it really needs. And with Batman and Superman at war with one another, a new threat quickly arises, putting mankind in greater danger than it\u2019s ever known before.", "release_date": "2016-03-23", "popularity": 26.471989, "original_title": "Batman v Superman: Dawn of Justice", "backdrop_path": "/15PbZtjRJ4zgQA8XS0otL70piQi.jpg", "vote_count": 156, "video": false, "adult": false, "vote_average": 5.09, "original_language": "en", "id": 209112, "genre_ids": [28, 12, 14, 878]}, {"poster_path": "/sM33SANp9z6rXW8Itn7NnG1GOEs.jpg", "title": "Zootopia", "overview": "In the animal city of Zootopia, a fast-talking fox who's trying to make it big goes on the run when he's framed for a crime he didn't commit. Zootopia's top cop, a self-righteous rabbit, is hot on his tail, but when both become targets of a conspiracy, they're forced to team up and discover even natural enemies can become best friends.", "release_date": "2016-02-12", "popularity": 25.834178, "original_title": "Zootopia", "backdrop_path": "/mhdeE1yShHTaDbJVdWyTlzFvNkr.jpg", "vote_count": 374, "video": false, "adult": false, "vote_average": 7.37, "original_language": "en", "id": 269149, "genre_ids": [16, 12, 10751, 35]}, {"poster_path": "/kqjL17yufvn9OVLyXYpvtyrFfak.jpg", "title": "Mad Max: Fury Road", "overview": "An apocalyptic story set in the furthest reaches of our planet, in a stark desert landscape where humanity is broken, and most everyone is crazed fighting for the necessities of life. Within this world exist two rebels on the run who just might be able to restore order. There's Max, a man of action and a man of few words, who seeks peace of mind following the loss of his wife and child in the aftermath of the chaos. And Furiosa, a woman of action and a woman who believes her path to survival may be achieved if she can make it across the desert back to her childhood homeland.", "release_date": "2015-05-13", "popularity": 24.586914, "original_title": "Mad Max: Fury Road", "backdrop_path": "/tbhdm8UJAb4ViCTsulYFL3lxMCd.jpg", "vote_count": 4169, "video": false, "adult": false, "vote_average": 7.42, "original_language": "en", "id": 76341, "genre_ids": [878, 53, 28, 12]}, {"poster_path": "/jjBgi2r5cRt36xF6iNUEhzscEcb.jpg", "title": "Jurassic World", "overview": "Twenty-two years after the events of Jurassic Park, Isla Nublar now features a fully functioning dinosaur theme park, Jurassic World, as originally envisioned by John Hammond.", "release_date": "2015-06-09", "popularity": 19.929821, "original_title": "Jurassic World", "backdrop_path": "/dkMD5qlogeRMiEixC4YNPUvax2T.jpg", "vote_count": 4140, "video": false, "adult": false, "vote_average": 6.67, "original_language": "en", "id": 135397, "genre_ids": [28, 12, 878, 53]}, {"poster_path": "/cWERd8rgbw7bCMZlwP207HUXxym.jpg", "title": "The Hunger Games: Mockingjay - Part 1", "overview": "Katniss Everdeen reluctantly becomes the symbol of a mass rebellion against the autocratic Capitol.", "release_date": "2014-11-19", "popularity": 19.920255, "original_title": "The Hunger Games: Mockingjay - Part 1", "backdrop_path": "/83nHcz2KcnEpPXY50Ky2VldewJJ.jpg", "vote_count": 2669, "video": false, "adult": false, "vote_average": 6.82, "original_language": "en", "id": 131631, "genre_ids": [878, 12, 53]}, {"poster_path": "/t5tGykRvvlLBULIPsAJEzGg1ylm.jpg", "title": "Heist", "overview": "A father is without the means to pay for his daughter's medical treatment. As a last resort, he partners with a greedy co-worker to rob a casino. When things go awry they're forced to hijack a city bus.", "release_date": "2015-11-13", "popularity": 19.207497, "original_title": "Heist", "backdrop_path": "/cBlnfR0n1GA2vPoUQNcbL9pb3VW.jpg", "vote_count": 127, "video": false, "adult": false, "vote_average": 5.42, "original_language": "en", "id": 336004, "genre_ids": [28, 53]}, {"poster_path": "/fqe8JxDNO8B8QfOGTdjh6sPCdSC.jpg", "title": "The Hateful Eight", "overview": "Bounty hunters seek shelter from a raging blizzard and get caught up in a plot of betrayal and deception.", "release_date": "2015-12-25", "popularity": 18.754126, "original_title": "The Hateful Eight", "backdrop_path": "/sSvgNBeBNzAuKl8U8sP50ETJPgx.jpg", "vote_count": 1273, "video": false, "adult": false, "vote_average": 7.34, "original_language": "en", "id": 273248, "genre_ids": [18, 9648, 53, 37]}, {"poster_path": "/i9LuBG9cx9BW7fFepeCVrvJ8XRP.jpg", "title": "The Divergent Series: Allegiant", "overview": "Beatrice Prior and Tobias Eaton venture into the world outside of the fence and are taken into protective custody by a mysterious agency known as the Bureau of Genetic Welfare.", "release_date": "2016-03-09", "popularity": 18.634933, "original_title": "The Divergent Series: Allegiant", "backdrop_path": "/jaoDlr7XGGtHs1VpN9macrbXheO.jpg", "vote_count": 167, "video": false, "adult": false, "vote_average": 6.24, "original_language": "en", "id": 262504, "genre_ids": [12, 878]}, {"poster_path": "/aBBQSC8ZECGn6Wh92gKDOakSC8p.jpg", "title": "Insurgent", "overview": "Beatrice Prior must confront her inner demons and continue her fight against a powerful alliance which threatens to tear her society apart.", "release_date": "2015-03-18", "popularity": 18.183463, "original_title": "Insurgent", "backdrop_path": "/L5QRL1O3fGs2hH1LbtYyVl8Tce.jpg", "vote_count": 1731, "video": false, "adult": false, "vote_average": 6.55, "original_language": "en", "id": 262500, "genre_ids": [12, 878, 53]}, {"poster_path": "/hE24GYddaxB9MVZl1CaiI86M3kp.jpg", "title": "Spectre", "overview": "A cryptic message from Bond\u2019s past sends him on a trail to uncover a sinister organization. While M battles political forces to keep the secret service alive, Bond peels back the layers of deceit to reveal the terrible truth behind SPECTRE.", "release_date": "2015-10-26", "popularity": 17.177725, "original_title": "Spectre", "backdrop_path": "/wVTYlkKPKrljJfugXN7UlLNjtuJ.jpg", "vote_count": 2333, "video": false, "adult": false, "vote_average": 6.26, "original_language": "en", "id": 206647, "genre_ids": [28, 12, 80]}, {"poster_path": "/5JU9ytZJyR3zmClGmVm9q4Geqbd.jpg", "title": "Terminator Genisys", "overview": "The year is 2029. John Connor, leader of the resistance continues the war against the machines. At the Los Angeles offensive, John's fears of the unknown future begin to emerge when TECOM spies reveal a new plot by SkyNet that will attack him from both fronts; past and future, and will ultimately change warfare forever.", "release_date": "2015-06-23", "popularity": 16.6599, "original_title": "Terminator Genisys", "backdrop_path": "/bIlYH4l2AyYvEysmS2AOfjO7Dn8.jpg", "vote_count": 1889, "video": false, "adult": false, "vote_average": 6.04, "original_language": "en", "id": 87101, "genre_ids": [878, 28, 53, 12]}, {"poster_path": "/kdXCb1Km4r7Om2G2uvYZPQJy4wG.jpg", "title": "Captain America: Civil War", "overview": "Following the events of Age of Ultron, the collective governments of the world pass an act designed to regulate all superhuman activity. This polarizes opinion amongst the Avengers, causing two factions to side with Iron Man or Captain America, which causes an epic battle between former allies.", "release_date": "2016-04-27", "popularity": 16.149135, "original_title": "Captain America: Civil War", "backdrop_path": "/cA6NLdvWAhqJrNLSvh7hYtY1t0s.jpg", "vote_count": 33, "video": false, "adult": false, "vote_average": 6.38, "original_language": "en", "id": 271110, "genre_ids": [28, 878, 53]}, {"poster_path": "/5W794ugjRwYx6IdFp1bXJqqMWRg.jpg", "title": "The Revenant", "overview": "In the 1820s, a frontiersman, Hugh Glass, sets out on a path of vengeance against those who left him for dead after a bear mauling.", "release_date": "2015-12-25", "popularity": 15.893637, "original_title": "The Revenant", "backdrop_path": "/uS1SkjVviraGfFNgkDwe7ohTm8B.jpg", "vote_count": 2034, "video": false, "adult": false, "vote_average": 7.24, "original_language": "en", "id": 281957, "genre_ids": [37, 18, 12, 53]}, {"poster_path": "/nBNZadXqJSdt05SHLqgT0HuC5Gm.jpg", "title": "Interstellar", "overview": "Interstellar chronicles the adventures of a group of explorers who make use of a newly discovered wormhole to surpass the limitations on human space travel and conquer the vast distances involved in an interstellar voyage.", "release_date": "2014-11-05", "popularity": 15.467026, "original_title": "Interstellar", "backdrop_path": "/xu9zaAevzQ5nnrsXN6JcahLnG4i.jpg", "vote_count": 4618, "video": false, "adult": false, "vote_average": 8.21, "original_language": "en", "id": 157336, "genre_ids": [12, 18, 878]}, {"poster_path": "/5aGhaIHYuQbqlHWvWYqMCnj40y2.jpg", "title": "The Martian", "overview": "During a manned mission to Mars, Astronaut Mark Watney is presumed dead after a fierce storm and left behind by his crew. But Watney has survived and finds himself stranded and alone on the hostile planet. With only meager supplies, he must draw upon his ingenuity, wit and spirit to subsist and find a way to signal to Earth that he is alive.", "release_date": "2015-09-30", "popularity": 15.420286, "original_title": "The Martian", "backdrop_path": "/sy3e2e4JwdAtd2oZGA2uUilZe8j.jpg", "vote_count": 3034, "video": false, "adult": false, "vote_average": 7.59, "original_language": "en", "id": 286217, "genre_ids": [18, 12, 878]}, {"poster_path": "/5TQ6YDmymBpnF005OyoB7ohZps9.jpg", "title": "Captain America: The Winter Soldier", "overview": "After the cataclysmic events in New York with The Avengers, Steve Rogers, aka Captain America is living quietly in Washington, D.C. and trying to adjust to the modern world. But when a S.H.I.E.L.D. colleague comes under attack, Steve becomes embroiled in a web of intrigue that threatens to put the world at risk. Joining forces with the Black Widow, Captain America struggles to expose the ever-widening conspiracy while fighting off professional assassins sent to silence him at every turn. When the full scope of the villainous plot is revealed, Captain America and the Black Widow enlist the help of a new ally, the Falcon. However, they soon find themselves up against an unexpected and formidable enemy\u2014the Winter Soldier.", "release_date": "2014-03-20", "popularity": 15.303238, "original_title": "Captain America: The Winter Soldier", "backdrop_path": "/4qfXT9BtxeFuamR4F49m2mpKQI1.jpg", "vote_count": 3014, "video": false, "adult": false, "vote_average": 7.67, "original_language": "en", "id": 100402, "genre_ids": [28, 12, 878]}, {"poster_path": "/vZpB8ezB1IqpxI9rx553TuGwDzJ.jpg", "title": "Star Wars: The Force Awakens", "overview": "Thirty years after defeating the Galactic Empire, Han Solo and his allies face a new threat from the evil Kylo Ren and his army of Stormtroopers.", "release_date": "2015-12-15", "popularity": 14.734469, "original_title": "Star Wars: The Force Awakens", "backdrop_path": "/njv65RTipNSTozFLuF85jL0bcQe.jpg", "vote_count": 3380, "video": false, "adult": false, "vote_average": 7.71, "original_language": "en", "id": 140607, "genre_ids": [28, 12, 878, 14]}, {"poster_path": "/q0R4crx2SehcEEQEkYObktdeFy.jpg", "title": "Minions", "overview": "Minions Stuart, Kevin and Bob are recruited by Scarlet Overkill, a super-villain who, alongside her inventor husband Herb, hatches a plot to take over the world.", "release_date": "2015-06-17", "popularity": 14.708476, "original_title": "Minions", "backdrop_path": "/uX7LXnsC7bZJZjn048UCOwkPXWJ.jpg", "vote_count": 2341, "video": false, "adult": false, "vote_average": 6.61, "original_language": "en", "id": 211672, "genre_ids": [10751, 16, 12, 35]}]}