{"total_results": 959, "dates": {"minimum": "2016-02-12", "maximum": "2016-03-25"}, "total_pages": 48, "page": 1, "results": [{"poster_path": "/6bCplVkhowCjTHXWv49UjRPn0eK.jpg", "title": "Batman v Superman: Dawn of Justice", "overview": "Fearing the actions of a god-like Super Hero left unchecked, Gotham City\u2019s own formidable, forceful vigilante takes on Metropolis\u2019s most revered, modern-day savior, while the world wrestles with what sort of hero it really needs. And with Batman and Superman at war with one another, a new threat quickly arises, putting mankind in greater danger than it\u2019s ever known before.", "release_date": "2016-03-23", "popularity": 26.471989, "original_title": "Batman v Superman: Dawn of Justice", "backdrop_path": "/15PbZtjRJ4zgQA8XS0otL70piQi.jpg", "vote_count": 156, "video": false, "adult": false, "vote_average": 5.09, "original_language": "en", "id": 209112, "genre_ids": [28, 12, 14, 878]}, {"poster_path": "/sM33SANp9z6rXW8Itn7NnG1GOEs.jpg", "title": "Zootopia", "overview": "In the animal city of Zootopia, a fast-talking fox who's trying to make it big goes on the run when he's framed for a crime he didn't commit. Zootopia's top cop, a self-righteous rabbit, is hot on his tail, but when both become targets of a conspiracy, they're forced to team up and discover even natural enemies can become best friends.", "release_date": "2016-02-12", "popularity": 25.834178, "original_title": "Zootopia", "backdrop_path": "/mhdeE1yShHTaDbJVdWyTlzFvNkr.jpg", "vote_count": 374, "video": false, "adult": false, "vote_average": 7.37, "original_language": "en", "id": 269149, "genre_ids": [16, 12, 10751, 35]}, {"poster_path": "/i9LuBG9cx9BW7fFepeCVrvJ8XRP.jpg", "title": "The Divergent Series: Allegiant", "overview": "Beatrice Prior and Tobias Eaton venture into the world outside of the fence and are taken into protective custody by a mysterious agency known as the Bureau of Genetic Welfare.", "release_date": "2016-03-09", "popularity": 18.634933, "original_title": "The Divergent Series: Allegiant", "backdrop_path": "/jaoDlr7XGGtHs1VpN9macrbXheO.jpg", "vote_count": 167, "video": false, "adult": false, "vote_average": 6.24, "original_language": "en", "id": 262504, "genre_ids": [12, 878]}, {"poster_path": "/yTdTuJww8NnL9YLaxL2LxDG5uQ7.jpg", "title": "Gods of Egypt", "overview": "A common thief joins a mythical god on a quest through Egypt.", "release_date": "2016-02-25", "popularity": 8.679681, "original_title": "Gods of Egypt", "backdrop_path": "/nOv6xCXDHxhJkactRTxIVUPry3w.jpg", "vote_count": 142, "video": false, "adult": false, "vote_average": 4.5, "original_language": "en", "id": 205584, "genre_ids": [28, 12, 14]}, {"poster_path": "/d936U33f5n6bRtzDHh1gmDdriKr.jpg", "title": "10 Cloverfield Lane", "overview": "Waking up from a car accident, a young woman finds herself in the basement of a man who says he's saved her life from a chemical attack that has left the outside uninhabitable.", "release_date": "2016-03-09", "popularity": 8.349951, "original_title": "10 Cloverfield Lane", "backdrop_path": "/sS6zJbdqAxfd29xO4OL5jCO7XAT.jpg", "vote_count": 82, "video": false, "adult": false, "vote_average": 7.03, "original_language": "en", "id": 333371, "genre_ids": [18, 9648, 878, 53]}, {"poster_path": "/1ma0lXsFyWYkxdLkvnwW3Y9GTrR.jpg", "title": "Open Season: Scared Silly", "overview": "The humans and animals believe a werewolf is on the loose, and former hunter Shaw uses the opportunity to re-open the season. Boog, Elliot, and Mr. Weenie have to face their fears and find the werewolf to get the season closed permanently.", "release_date": "2016-03-10", "popularity": 6.85447, "original_title": "Open Season: Scared Silly", "backdrop_path": "/zdKOHwWSBd6flUtwf8lK6Ial1zj.jpg", "vote_count": 8, "video": false, "adult": false, "vote_average": 5.44, "original_language": "en", "id": 382517, "genre_ids": [16, 35, 10751, 12]}, {"poster_path": "/ofUfaj5e6qZtDqTPS5GkEV0H2zH.jpg", "title": "Crouching Tiger, Hidden Dragon: Sword of Destiny", "overview": "A story of lost love, young love, a legendary sword and one last opportunity at redemption.", "release_date": "2016-02-18", "popularity": 5.326208, "original_title": "Crouching Tiger, Hidden Dragon: Sword of Destiny", "backdrop_path": "/z9xdmVdow3loF7asV97IL0KQLpn.jpg", "vote_count": 53, "video": false, "adult": false, "vote_average": 5.25, "original_language": "en", "id": 263341, "genre_ids": [28, 12, 18]}, {"poster_path": "/dwRHF43p50wLIYAIxrUhLkK3jCI.jpg", "title": "Triple 9", "overview": "In TRIPLE 9, a crew of dirty cops is blackmailed by the Russian mob to execute a virtually impossible heist. The only way to pull it off is to manufacture a 999, police code for \u201cofficer down\u201d. Their plan is turned upside down when the unsuspecting rookie they set up to die foils the attack, triggering a breakneck, action-packed finale filled with double-crosses, greed and revenge.", "release_date": "2016-02-19", "popularity": 4.802783, "original_title": "Triple 9", "backdrop_path": "/yB5f25CPuTrb6XSbd076kzR9Qz6.jpg", "vote_count": 114, "video": false, "adult": false, "vote_average": 4.39, "original_language": "en", "id": 146198, "genre_ids": [80, 18, 53]}, {"poster_path": "/hnvr7lXp2OZfskHxxik8fnpa76z.jpg", "title": "The Witch", "overview": "New England in the 1630s: William and Katherine lead a devout Christian life with five children, homesteading on the edge of an impassable wilderness. When their newborn son vanishes and crops fail, the family turns on one another. Beyond their worst fears, a supernatural evil lurks in the nearby wood.", "release_date": "2016-02-19", "popularity": 4.755703, "original_title": "The Witch", "backdrop_path": "/dIkFrbXX9OrUqPcrunJ6GSweTML.jpg", "vote_count": 155, "video": false, "adult": false, "vote_average": 5.06, "original_language": "en", "id": 310131, "genre_ids": [27]}, {"poster_path": "/sp55ilnrp50TC0Qf7F2AC2OqxpB.jpg", "title": "Midnight Special", "overview": "A father and son go on the run after the dad learns his child possesses special powers.", "release_date": "2016-02-18", "popularity": 4.564539, "original_title": "Midnight Special", "backdrop_path": "/zacbbncfafp4VLJNUlRJE2UBePO.jpg", "vote_count": 31, "video": false, "adult": false, "vote_average": 3.81, "original_language": "en", "id": 245703, "genre_ids": [12, 18, 878]}, {"poster_path": "/5LjlxuSC9SXvvQYsHMOPrs0bNl8.jpg", "title": "Frankenstein", "overview": "After he is artificially created, then left for dead by a husband-and-wife team of eccentric scientists, Adam is confronted with nothing but aggression and violence from the world around him. This perfect creation-turned disfigured monster must come to grips with the horrific nature of humanity.", "release_date": "2016-03-17", "popularity": 4.34712, "original_title": "Frankenstein", "backdrop_path": "/dXwTxBrZ175XqZdC37uuGYUN5CF.jpg", "vote_count": 4, "video": false, "adult": false, "vote_average": 5.88, "original_language": "en", "id": 337029, "genre_ids": [27, 53]}, {"poster_path": "/3hgFTqS48AQFxocDmragHSJ654g.jpg", "title": "Miracles from Heaven", "overview": "A young girl suffering from a rare digestive disorder finds herself miraculously cured after surviving a terrible accident. Based on the book 'Three Miracles From Heaven' by Christy Beam.", "release_date": "2016-03-17", "popularity": 4.315515, "original_title": "Miracles from Heaven", "backdrop_path": "/sC43EmlBkDaWOGn4vJ1EAiyQIE8.jpg", "vote_count": 3, "video": false, "adult": false, "vote_average": 5.33, "original_language": "en", "id": 339984, "genre_ids": [18]}, {"poster_path": "/grgPRTKTnm7ktOiSSNFcutiv0vS.jpg", "title": "High-Rise", "overview": "In the midst of a vast ocean stands the Elysium Tower \u2013 a glistening vertical city \u2013 a sanctuary for challenging times.  Powered by sun and earth, designed by the greatest architectural visionary of the new millennium, Elysium is a self contained world. A world of commerce, cuisine and entertainment, featuring restaurants, swimming pools, libraries, cinemas, even a research hospital. It is not just the tallest and most technologically advanced work of modern architecture, but one that embodies the world's highest aspirations.  Dr. Robert Laing, a new arrival, settles in and adjusts to this hermetic life. But before long he becomes aware of something unsettling in the building. In an escalating atmosphere of unrest the residents break into tribal factions. Laing watches in horror as the myth of a utopian society is shattered.", "release_date": "2016-03-18", "popularity": 3.572992, "original_title": "High-Rise", "backdrop_path": "/cDRqBNxQ3cMKD3W8lEoCI16lOJR.jpg", "vote_count": 12, "video": false, "adult": false, "vote_average": 4.79, "original_language": "en", "id": 254302, "genre_ids": [28, 18, 878]}, {"poster_path": "/gVB7zbrsk9TtLoVI4qob97q9v07.jpg", "title": "The Neon Demon", "overview": "An aspiring model finds herself in a terrifying predicament with her survival hanging in the balance.", "release_date": "2016-03-18", "popularity": 3.542905, "original_title": "The Neon Demon", "backdrop_path": "/lSojrYBHLwiQQq6xr9Mec9f8wLM.jpg", "vote_count": 5, "video": false, "adult": false, "vote_average": 3.3, "original_language": "en", "id": 301365, "genre_ids": [9648, 27, 18]}, {"poster_path": "/iqWRyStIQikuQkZxEfkss8NqsbS.jpg", "title": "Grimsby", "overview": "Wrongfully accused and on the run, a top MI6 assassin joins forces with his long-lost, football hooligan brother to save the world from a sinister plot.", "release_date": "2016-02-24", "popularity": 3.21536, "original_title": "Grimsby", "backdrop_path": "/q6vNLs1pejZENEHu8jL75Lmub8L.jpg", "vote_count": 79, "video": false, "adult": false, "vote_average": 4.07, "original_language": "en", "id": 267193, "genre_ids": [28, 35]}, {"poster_path": "/7HAK7buvxPKEk6k7cKYE4EyuDwD.jpg", "title": "The Confirmation", "overview": "Eight year old Anthony is somewhat uneasy about spending the weekend with his alcoholic, down-on-his-luck carpenter dad Walt while his mom Bonnie and her new husband Kyle go to a Catholic retreat together. Walt is just as uneasy about spending time with Anthony, especially since their first day together is a series of characteristically unfortunate events, including his truck breaking down, his landlord locking him out of the house, and the theft of his toolbox, which he needs for an upcoming job. As Walt and Anthony set about finding the guy who stole the tools and improvise around their other misfortunes, they begin to discover a true connection with each other, causing Walt to become a better father and Anthony to reveal the promise and potential of the good man he will become.", "release_date": "2016-03-18", "popularity": 3.191757, "original_title": "The Confirmation", "backdrop_path": "/1uYShFeDIyq0EK6tF0fcEZalCxg.jpg", "vote_count": 2, "video": false, "adult": false, "vote_average": 6.25, "original_language": "en", "id": 347881, "genre_ids": [35]}, {"poster_path": "/tuTVLAqHNRnsk34hupg1YXey34D.jpg", "title": "Steve-O: Guilty as Charged", "overview": "Comedy special starring comedian, author and all-round lunatic Steve-O, who went from humble beginnings as a circus clown to hitting the big time in 'Jackass'. Expect the unexpected as he performs hilariously outrageous stunts and riotous tricks that hold nothing back.", "release_date": "2016-03-20", "popularity": 3.0777, "original_title": "Steve-O: Guilty as Charged", "backdrop_path": null, "vote_count": 0, "video": false, "adult": false, "vote_average": 0, "original_language": "en", "id": 388624, "genre_ids": []}, {"poster_path": "/1GOqCPnvnBYiqjuJ0T25jT5UBeC.jpg", "title": "Monster High: Great Scarrier Reef", "overview": "Join the Monster High ghouls on an all new aquatic adventure as they dive deep into the crystal deep blue waters of the Great Scarrier Reef. When the ghouls get pulled in the school pool, they find themselves transported to a world of corals and florals - a wild underwater wonderland! But Lagoona is not there to see the sights - she's on a mission of the heart, as she realizes she has come home! She must confront her childhood nemesis and bully, come to terms with her own freaky flaws, win an aquatic dance extravaganza, and fight a terrible beast from the deep. So take the plunge - you won't believe what awaits you under the waves!", "release_date": "2016-03-10", "popularity": 2.935575, "original_title": "Monster High: Great Scarrier Reef", "backdrop_path": "/AwFTN25NOgnQvbmgL7S488lHFAe.jpg", "vote_count": 0, "video": false, "adult": false, "vote_average": 0, "original_language": "en", "id": 382581, "genre_ids": [10751, 16]}, {"poster_path": "/83Myyu2Xyhy3OFv1pO5Lr1yXSmX.jpg", "title": "Kapoor and Sons", "overview": "A story revolving around a dysfunctional family of two brothers who visit their parents and grandfather in Coonoor, and end up falling for the same woman.", "release_date": "2016-03-18", "popularity": 2.921795, "original_title": "Kapoor and Sons", "backdrop_path": "/6qTaA3b3F7WHy2Ixpacrmfv9c5K.jpg", "vote_count": 1, "video": false, "adult": false, "vote_average": 8, "original_language": "en", "id": 374173, "genre_ids": []}, {"poster_path": "/22G22rdZsMDO7khe4Ue3G2uwOaw.jpg", "title": "Whiskey Tango Foxtrot", "overview": "A journalist recounts her wartime coverage in Afghanistan and Pakistan.", "release_date": "2016-03-04", "popularity": 2.873243, "original_title": "Whiskey Tango Foxtrot", "backdrop_path": "/tVsqy0vgbYKwrsVuuMsUatm3GTM.jpg", "vote_count": 38, "video": false, "adult": false, "vote_average": 2.92, "original_language": "ru", "id": 279641, "genre_ids": [10752, 35]}]}