{"total_results": 19999, "total_pages": 1000, "page": 1, "results": [{"origin_country": ["US"], "poster_path": "/itrCovJkuH7I8SJ98jxrInnwm2y.jpg", "name": "Marvel's Daredevil", "overview": "Lawyer-by-day Matt Murdock uses his heightened senses from being blinded as a young boy to fight crime at night on the streets of Hell\u2019s Kitchen as Daredevil.", "popularity": 47.69912, "original_name": "Marvel's Daredevil", "backdrop_path": "/dpNeXLEnuKzAvbNwveJhNEiQvXZ.jpg", "first_air_date": "2015-04-10", "vote_count": 118, "vote_average": 7.08, "original_language": "en", "id": 61889, "genre_ids": [28, 80]}, {"origin_country": ["US"], "poster_path": "/vxuoMW6YBt6UsxvMfRNwRl9LtWS.jpg", "name": "The Walking Dead", "overview": "Sheriff's deputy Rick Grimes awakens from a coma to find a post-apocalyptic world dominated by flesh-eating zombies. He sets out to find his family and encounters many other survivors along the way.", "popularity": 41.451041, "original_name": "The Walking Dead", "backdrop_path": "/zYFQM9G5j9cRsMNMuZAX64nmUMf.jpg", "first_air_date": "2010-10-31", "vote_count": 395, "vote_average": 7.35, "original_language": "en", "id": 1402, "genre_ids": [18]}, {"origin_country": ["GB"], "poster_path": "/igDhbYQTvact1SbNDbzoeiFBGda.jpg", "name": "Doctor Who", "overview": "The Doctor looks and seems human. He's handsome, witty, and could be mistaken for just another man in the street. But he is a Time Lord: a 900 year old alien with 2 hearts, part of a gifted civilization who mastered time travel. The Doctor saves planets for a living \u2013 more of a hobby actually, and he's very, very good at it. He's saved us from alien menaces and evil from before time began \u2013 but just who is he?", "popularity": 30.156342, "original_name": "Doctor Who", "backdrop_path": "/cVWsigSx97cTw1QfYFFsCMcR4bp.jpg", "first_air_date": "2005-03-26", "vote_count": 200, "vote_average": 7.45, "original_language": "en", "id": 57243, "genre_ids": [28, 12, 18, 878]}, {"origin_country": ["US"], "poster_path": "/wQoosZYg9FqPrmI4zeCLRdEbqAB.jpg", "name": "The Big Bang Theory", "overview": "The Big Bang Theory is centered on five characters living in Pasadena, California: roommates Leonard Hofstadter and Sheldon Cooper; Penny, a waitress and aspiring actress who lives across the hall; and Leonard and Sheldon's equally geeky and socially awkward friends and co-workers, mechanical engineer Howard Wolowitz and astrophysicist Raj Koothrappali. The geekiness and intellect of the four guys is contrasted for comic effect with Penny's social skills and common sense.", "popularity": 20.709947, "original_name": "The Big Bang Theory", "backdrop_path": "/913iSX9T4xMTFEcUAeQmTqtXo4G.jpg", "first_air_date": "2007-09-24", "vote_count": 408, "vote_average": 7.29, "original_language": "en", "id": 1418, "genre_ids": [35]}, {"origin_country": ["US"], "poster_path": "/3iFm6Kz7iYoFaEcj4fLyZHAmTQA.jpg", "name": "Supernatural", "overview": "When they were boys, Sam and Dean Winchester lost their mother to a mysterious and demonic supernatural force. Subsequently, their father raised them to be soldiers. He taught them about the paranormal evil that lives in the dark corners and on the back roads of America ... and he taught them how to kill it. Now, the Winchester brothers crisscross the country in their '67 Chevy Impala, battling every kind of supernatural threat they encounter along the way. ", "popularity": 20.122867, "original_name": "Supernatural", "backdrop_path": "/vFGQEMDQzf5tkThlyfWaiffxIKp.jpg", "first_air_date": "2005-09-13", "vote_count": 160, "vote_average": 6.97, "original_language": "en", "id": 1622, "genre_ids": [18, 9648, 10765]}, {"origin_country": ["US"], "poster_path": "/jIhL6mlT7AblhbHJgEoiBIOUVl1.jpg", "name": "Game of Thrones", "overview": "Seven noble families fight for control of the mythical land of Westeros. Friction between the houses leads to full-scale war. All while a very ancient evil awakens in the farthest north. Amidst the war, a neglected military order of misfits, the Night's Watch, is all that stands between the realms of men and icy horrors beyond.\n\n", "popularity": 19.546559, "original_name": "Game of Thrones", "backdrop_path": "/mUkuc2wyV9dHLG0D0Loaw5pO2s8.jpg", "first_air_date": "2011-04-17", "vote_count": 527, "vote_average": 8.43, "original_language": "en", "id": 1399, "genre_ids": [18, 10765]}, {"origin_country": ["IE", "CA"], "poster_path": "/mBDlsOhNOV1MkNii81aT14EYQ4S.jpg", "name": "Vikings", "overview": "Vikings follows the adventures of Ragnar Lothbrok, the greatest hero of his age. The series tells the sagas of Ragnar's band of Viking brothers and his family, as he rises to become King of the Viking tribes. As well as being a fearless warrior, Ragnar embodies the Norse traditions of devotion to the gods. Legend has it that he was a direct descendant of Odin, the god of war and warriors.", "popularity": 19.065514, "original_name": "Vikings", "backdrop_path": "/A30ZqEoDbchvE7mCZcSp6TEwB1Q.jpg", "first_air_date": "2013-03-03", "vote_count": 148, "vote_average": 7.25, "original_language": "en", "id": 44217, "genre_ids": [18]}, {"origin_country": ["US"], "poster_path": "/1yeVJox3rjo2jBKrrihIMj7uoS9.jpg", "name": "Breaking Bad", "overview": "Breaking Bad is an American crime drama television series created and produced by Vince Gilligan. Set and produced in Albuquerque, New Mexico, Breaking Bad is the story of Walter White, a struggling high school chemistry teacher who is diagnosed with inoperable lung cancer at the beginning of the series. He turns to a life of crime, producing and selling methamphetamine, in order to secure his family's financial future before he dies, teaming with his former student, Jesse Pinkman. Heavily serialized, the series is known for positioning its characters in seemingly inextricable corners and has been labeled a contemporary western by its creator.", "popularity": 18.441806, "original_name": "Breaking Bad", "backdrop_path": "/eSzpy96DwBujGFj0xMbXBcGcfxX.jpg", "first_air_date": "2008-01-19", "vote_count": 486, "vote_average": 8.45, "original_language": "en", "id": 1396, "genre_ids": [18]}, {"origin_country": ["US"], "poster_path": "/lUFK7ElGCk9kVEryDJHICeNdmd1.jpg", "name": "The Flash", "overview": "After a particle accelerator causes a freak storm, CSI Investigator Barry Allen is struck by lightning and falls into a coma. Months later he awakens with the power of super speed, granting him the ability to move through Central City like an unseen guardian angel. Though initially excited by his newfound powers, Barry is shocked to discover he is not the only \"meta-human\" who was created in the wake of the accelerator explosion -- and not everyone is using their new powers for good. Barry partners with S.T.A.R. Labs and dedicates his life to protect the innocent. For now, only a few close friends and associates know that Barry is literally the fastest man alive, but it won't be long before the world learns what Barry Allen has become...The Flash.", "popularity": 17.567308, "original_name": "The Flash", "backdrop_path": "/mmxxEpTqVdwBlu5Pii7tbedBkPC.jpg", "first_air_date": "2014-10-07", "vote_count": 241, "vote_average": 6.94, "original_language": "en", "id": 60735, "genre_ids": [28, 12, 18, 878]}, {"origin_country": ["US"], "poster_path": "/wBfEtXcnXtw5VJwChYU82CG6Att.jpg", "name": "Once Upon a Time", "overview": "Once Upon a Time is an American fairy tale drama series that takes place in the fictional seaside town of Storybrooke, Maine, in which its residents are actually characters from various fairy tales that were transported to the \u201creal world\" town and robbed of their real memories by a powerful curse. Episodes typically feature a primary storyline in Storybrooke, as well as a secondary storyline usually from another point in a character's life before the curse was enacted.", "popularity": 15.923955, "original_name": "Once Upon a Time", "backdrop_path": "/rtgqBXbwvgEUIWtewEv7fBn2d44.jpg", "first_air_date": "2011-10-23", "vote_count": 86, "vote_average": 6.55, "original_language": "en", "id": 39272, "genre_ids": [18, 14, 9648]}, {"origin_country": ["CA", "US"], "poster_path": "/mo0FP1GxOFZT4UDde7RFDz5APXF.jpg", "name": "Arrow", "overview": "Spoiled billionaire playboy Oliver Queen is missing and presumed dead when his yacht is lost at sea. He returns five years later a changed man, determined to clean up the city as a hooded vigilante armed with a bow.", "popularity": 15.750231, "original_name": "Arrow", "backdrop_path": "/dXTyVDTIgeByvUOUEiHjbi8xX9A.jpg", "first_air_date": "2012-10-10", "vote_count": 253, "vote_average": 6.83, "original_language": "en", "id": 1412, "genre_ids": [28, 12, 80, 18, 9648, 878]}, {"origin_country": ["US"], "poster_path": "/n82soKV5XS5iYXF60eDO84kLPF3.jpg", "name": "Marvel's Agents of S.H.I.E.L.D.", "overview": "Agent Phil Coulson of S.H.I.E.L.D. (Strategic Homeland Intervention, Enforcement and Logistics Division) puts together a team of agents to investigate the new, the strange and the unknown around the globe, protecting the ordinary from the extraordinary.", "popularity": 15.354431, "original_name": "Marvel's Agents of S.H.I.E.L.D.", "backdrop_path": "/jOrfoGipT8QoDi54Qd9f5yhJCgw.jpg", "first_air_date": "2013-09-24", "vote_count": 143, "vote_average": 6.74, "original_language": "en", "id": 1403, "genre_ids": [14, 18, 28, 12, 878]}, {"origin_country": ["US"], "poster_path": "/z2iR0vmuoEU5eL2ONwygDuzzlOy.jpg", "name": "Gotham", "overview": "Before there was Batman, there was GOTHAM. \n\nEveryone knows the name Commissioner Gordon. He is one of the crime world's greatest foes, a man whose reputation is synonymous with law and order. But what is known of Gordon's story and his rise from rookie detective to Police Commissioner? What did it take to navigate the multiple layers of corruption that secretly ruled Gotham City, the spawning ground of the world's most iconic villains? And what circumstances created them \u2013 the larger-than-life personas who would become Catwoman, The Penguin, The Riddler, Two-Face and The Joker? ", "popularity": 13.639196, "original_name": "Gotham", "backdrop_path": "/bRFmBU0VPr9s1oeJHuS5Zb5nZQS.jpg", "first_air_date": "2014-09-22", "vote_count": 113, "vote_average": 6.87, "original_language": "en", "id": 60708, "genre_ids": [18, 14, 53, 80]}, {"origin_country": ["US"], "poster_path": "/yTZQkSsxUFJZJe67IenRM0AEklc.jpg", "name": "The Simpsons", "overview": "Set in Springfield, the average American town, the show focuses on the antics and everyday adventures of the Simpson family; Homer, Marge, Bart, Lisa and Maggie, as well as a virtual cast of thousands. Since the beginning, the series has been a pop culture icon, attracting hundreds of celebrities to guest star. The show has also made name for itself in its fearless satirical take on politics, media and American life in general.", "popularity": 13.57482, "original_name": "The Simpsons", "backdrop_path": "/f5uNbUC76oowt5mt5J9QlqrIYQ6.jpg", "first_air_date": "1989-12-16", "vote_count": 201, "vote_average": 7.91, "original_language": "en", "id": 456, "genre_ids": [35, 16, 10751]}, {"origin_country": ["US"], "poster_path": "/dSBYRw1R001azIUsaatQXZAOcXk.jpg", "name": "Shameless", "overview": "Chicagoan Frank Gallagher is the proud single dad of six smart, industrious, independent kids, who without him would be... perhaps better off. When Frank's not at the bar spending what little money they have, he's passed out on the floor. But the kids have found ways to grow up in spite of him. They may not be like any family you know, but they make no apologies for being exactly who they are.", "popularity": 13.390808, "original_name": "Shameless", "backdrop_path": "/c0r3qQiuRvHNhdHSjlo8lrmrvAy.jpg", "first_air_date": "2011-01-09", "vote_count": 60, "vote_average": 7.07, "original_language": "en", "id": 34307, "genre_ids": [18, 35]}, {"origin_country": ["US"], "poster_path": "/5KfFnPRIgxan2eJ7XxMkucpq8VI.jpg", "name": "Law & Order: Special Victims Unit", "overview": "Law & Order: Special Victims Unit is an American police procedural crime drama television series set in New York City, where it is also primarily produced. In the style of the original Law & Order, episodes are often \"ripped from the headlines\" or loosely based on real crimes that have received media attention.", "popularity": 12.886035, "original_name": "Law & Order: Special Victims Unit", "backdrop_path": "/nALNtBMQVf27H4HiSZnKNfFVvXX.jpg", "first_air_date": "1999-09-20", "vote_count": 61, "vote_average": 6.01, "original_language": "en", "id": 2734, "genre_ids": [18]}, {"origin_country": ["US"], "poster_path": "/tnkYVbGDmpIcKWo7Synr4yqEsZM.jpg", "name": "Grey's Anatomy", "overview": "Follows the personal and professional lives of a group of doctors at Seattle\u2019s Grey Sloan Memorial Hospital.", "popularity": 12.85891, "original_name": "Grey's Anatomy", "backdrop_path": "/y6JABtgWMVYPx84Rvy7tROU5aNH.jpg", "first_air_date": "2005-03-27", "vote_count": 77, "vote_average": 5.82, "original_language": "en", "id": 1416, "genre_ids": [18]}, {"origin_country": ["US"], "poster_path": "/6AquMx9MoJZTaZIR2AokSDATFCt.jpg", "name": "House of Cards", "overview": "Set in present day Washington, D.C., House of Cards is the story of Frank Underwood, a ruthless and cunning politician, and his wife Claire who will stop at nothing to conquer everything. This wicked political drama penetrates the shadowy world of greed, sex and corruption in modern D.C. \n\nHouse of Cards is an adaptation of a previous BBC miniseries of the same name, which is based on the novel by Michael Dobbs.", "popularity": 12.604873, "original_name": "House of Cards", "backdrop_path": "/3RognQsjLyE50cy5VMo28auGe9q.jpg", "first_air_date": "2013-02-01", "vote_count": 135, "vote_average": 7.74, "original_language": "en", "id": 1425, "genre_ids": [18]}, {"origin_country": ["US"], "poster_path": "/8efHIOhXaNPZn1c5ERDumONtuDk.jpg", "name": "The 100", "overview": "Based on the books by Kass Morgan, this show takes place 100 years in the future, when the Earth has been abandoned due to radioactivity. The last surviving humans live on an ark orbiting the planet \u2014 but the ark won't last forever. So the repressive regime picks 100 expendable juvenile delinquents to send down to Earth to see if the planet is still habitable.", "popularity": 12.371874, "original_name": "The 100", "backdrop_path": "/6hUX0tzbd68NIIVVrqX1Ozdz4k7.jpg", "first_air_date": "2014-03-19", "vote_count": 138, "vote_average": 6.63, "original_language": "en", "id": 48866, "genre_ids": [10765, 18]}, {"origin_country": ["US", "SE"], "poster_path": "/8fLcmro0sU0ktJAmjiSx7Am9Wy7.jpg", "name": "100 Code", "overview": "New York, USA. Stockholm, Sweden. Over the past twelve months young, blonde, blue-eyed women have been found dead in a meadow where Asphodel flowers grow. New York Detective Tommy Conley gets a special dispensation from the NYPD to go observe and act as an adviser to the Stockholm Police Department in order to help solve these crimes.", "popularity": 12.114492, "original_name": "100 Code", "backdrop_path": "/12gvsDDSBPux5aAUO1G5Hx26PLH.jpg", "first_air_date": "2015-03-06", "vote_count": 18, "vote_average": 6.03, "original_language": "en", "id": 62146, "genre_ids": [80, 53]}]}